[
  {
    "title": "Leverage Ratio",
    "list": [
      {
        "icon": "report.svg",
        "title": "Leverage Ratio Common Disclosure - Desember 2018",
        "to": "#"
      },
      {
        "icon": "report.svg",
        "title": "Leverage Ratio Common Disclosure - Desember 2018",
        "to": "#"
      },
      {
        "icon": "report.svg",
        "title": "Leverage Ratio Common Disclosure - Desember 2018",
        "to": "#"
      },
      {
        "icon": "report.svg",
        "title": "Leverage Ratio Common Disclosure - Desember 2018",
        "to": "#"
      }
    ]
  }
]
