[{
    "id": 1,
    "title": "Simpanan",
    "link": "https://www.ocbcnisp.com/simpanan"
  },
  {
    "id": 2,
    "title": "Kartu Kredit",
    "link": "https://www.ocbcnisp.com/kartu-kredit"
  },
  {
    "id": 3,
    "title": "Investasi",
    "link": "https://www.ocbcnisp.com/investasi"
  },
  {
    "id": 4,
    "title": "Pinjaman",
    "link": "https://www.ocbcnisp.com/pinjaman"
  },
  {
    "id": 5,
    "title": "Karir",
    "link": "https://www.ocbcnisp.com/karir"
  }
]
