<svg xmlns="http://www.w3.org/2000/svg" width="32" height="32" viewBox="0 0 32 32">
    <g fill="none" fill-rule="evenodd">
        <path fill="#313131" fill-rule="nonzero" d="M10.026-.685L.823 5.475C-1.17 6.81.261 9.095 2.415 9.095h18.441c2.157 0 3.587-2.29 1.588-3.623l-9.238-6.16c-.911-.607-2.27-.606-3.18.003zm10.301 7.494H2.94l8.358-5.595c.142-.094.498-.095.64 0l8.39 5.595zM23.272 21.605c.63 0 1.143.512 1.143 1.143 0 .602-.467 1.096-1.058 1.14l-.085.003H0c-.631 0-1.143-.512-1.143-1.143 0-.603.467-1.096 1.058-1.14L0 21.605h23.272z" transform="translate(4.571 4.571)"/>
        <path fill="#313131" fill-rule="nonzero" d="M2.542 7.668c.603 0 1.096.466 1.14 1.057l.003.085v12.908c0 .631-.512 1.143-1.143 1.143-.602 0-1.096-.467-1.14-1.058l-.003-.085V8.81c0-.63.512-1.142 1.143-1.142zM6.411 7.668c.602 0 1.096.466 1.14 1.057l.003.085v12.908c0 .631-.512 1.143-1.143 1.143-.603 0-1.096-.467-1.14-1.058l-.003-.085V8.81c0-.63.512-1.142 1.143-1.142zM16.976 7.668c.603 0 1.096.466 1.14 1.057l.003.085v12.908c0 .631-.512 1.143-1.143 1.143-.602 0-1.096-.467-1.14-1.058l-.003-.085V8.81c0-.63.512-1.142 1.143-1.142zM20.846 7.668c.602 0 1.096.466 1.14 1.057l.003.085v12.908c0 .631-.512 1.143-1.143 1.143-.603 0-1.096-.467-1.14-1.058l-.003-.085V8.81c0-.63.511-1.142 1.143-1.142z" transform="translate(4.571 4.571)"/>
        <path fill="#EB2629" d="M11.636 19.718c-.336 0-.609-.273-.609-.608v-.04c-.985-.274-1.67-1.168-1.67-2.187 0-.336.273-.609.609-.609.336 0 .609.273.609.609 0 .585.476 1.062 1.06 1.062.586 0 1.062-.477 1.062-1.062 0-.585-.476-1.061-1.061-1.061-1.257 0-2.279-1.023-2.279-2.28 0-1.019.685-1.912 1.67-2.187v-.038c0-.336.273-.61.609-.61.335 0 .608.274.608.61v.038c.986.274 1.67 1.168 1.67 2.188 0 .335-.272.608-.608.608-.336 0-.609-.273-.609-.608 0-.585-.476-1.061-1.061-1.061s-1.061.476-1.061 1.06c0 .587.476 1.063 1.06 1.063 1.257 0 2.28 1.022 2.28 2.278 0 1.019-.685 1.913-1.671 2.187v.04c0 .335-.273.608-.608.608" transform="translate(4.571 4.571)"/>
        <path fill="#EB2629" d="M11.636 10.422c-.434 0-.796.31-.877.72-1.005.366-1.688 1.32-1.688 2.401 0 1.414 1.15 2.564 2.565 2.564.427 0 .775.348.775.776 0 .428-.348.776-.775.776-.428 0-.776-.348-.776-.776 0-.494-.401-.895-.894-.895-.494 0-.895.401-.895.895 0 1.08.683 2.035 1.688 2.401.08.41.443.72.877.72s.796-.31.877-.72c1.005-.366 1.687-1.32 1.687-2.4 0-1.415-1.15-2.565-2.564-2.565-.428 0-.776-.348-.776-.776 0-.428.348-.776.776-.776.427 0 .775.348.775.776 0 .493.402.894.895.894s.894-.401.894-.894c0-1.08-.682-2.035-1.687-2.401-.081-.41-.443-.72-.877-.72m0 .571c.178 0 .322.146.322.323v.26l.176.046c.88.228 1.494 1.018 1.494 1.921 0 .178-.145.322-.322.322-.179 0-.323-.144-.323-.322 0-.743-.604-1.347-1.347-1.347s-1.347.604-1.347 1.347.604 1.347 1.347 1.347c1.099 0 1.992.894 1.992 1.993 0 .902-.614 1.693-1.494 1.921l-.176.046v.26c0 .178-.144.323-.322.323-.178 0-.323-.145-.323-.324v-.259l-.175-.046c-.88-.228-1.495-1.019-1.495-1.92 0-.18.145-.324.323-.324.178 0 .323.145.323.323 0 .742.604 1.347 1.347 1.347s1.347-.605 1.347-1.347c0-.743-.604-1.347-1.347-1.347-1.1 0-1.993-.894-1.993-1.993 0-.903.615-1.693 1.495-1.921l.175-.046v-.26c0-.177.145-.323.323-.323" transform="translate(4.571 4.571)"/>
    </g>
</svg>
