<?xml version="1.0" encoding="UTF-8"?>
<svg width="30px" height="29px" viewBox="0 0 30 29" version="1.1" xmlns="http://www.w3.org/2000/svg" xmlns:xlink="http://www.w3.org/1999/xlink">
    <!-- Generator: Sketch 61.2 (89653) - https://sketch.com -->
    <title>brand/icon/special/32/saving</title>
    <desc>Created with Sketch.</desc>
    <defs>
        <linearGradient x1="13.3680661%" y1="38.9097308%" x2="87.6364012%" y2="60.2243629%" id="linearGradient-1">
            <stop stop-color="#F14545" offset="0%"></stop>
            <stop stop-color="#C41432" offset="100%"></stop>
        </linearGradient>
    </defs>
    <g id="Page-1" stroke="none" stroke-width="1" fill="none" fill-rule="evenodd">
        <g id="suku-bunga-journey" transform="translate(-441.000000, -33.000000)">
            <g id="Pilihan-produk-lain">
                <g id="molecules/card/product-copy-2" transform="translate(416.000000, 0.000000)">
                    <g id="Group" transform="translate(24.000000, 32.000000)">
                        <g id="product">
                            <g id="brand/icon/content/32/product/KPR-kendali">
                                <g id="KPR-kendali" transform="translate(1.000000, 1.000000)">
                                    <path d="M29.1941142,12.8457746 C29.3486594,13.0570687 29.3810586,13.3339392 29.2794718,13.5752057 C28.7353805,14.8674119 26.6143594,18.2290626 25.9389873,18.9983268 L25.6543985,19.3156937 C24.0979693,21.0198103 21.2751814,23.6489999 20.3235589,23.8116601 L20.2374131,23.8195877 L11.439,23.819 L12.2674677,24.6477673 C12.490788,24.8710877 12.51312,25.2192862 12.3344638,25.4675821 L12.2674677,25.546339 L8.97841009,28.8353966 C8.73027638,29.0835303 8.32797214,29.0835303 8.07983843,28.8353966 L8.07983843,28.8353966 L0.186100286,20.9416584 C-0.0620334286,20.6935247 -0.0620334286,20.2912205 0.186100286,20.0430868 L0.186100286,20.0430868 L3.47515784,16.7540292 C3.72329156,16.5058955 4.1255958,16.5058955 4.37372951,16.7540292 L4.37372951,16.7540292 L5.121,17.502 L7.30812668,15.2061616 C8.13772004,14.3940326 9.21819236,13.7528254 10.1639569,13.6709405 L10.3644184,13.6620964 L13.5328772,13.6620964 C13.8757884,13.6620964 14.2038866,13.7718989 14.5439603,13.9651145 C14.7304112,14.0710481 14.9063598,14.1921471 15.1212885,14.3573585 L15.290567,14.4899904 L15.7344108,14.8396309 C15.8508979,14.9318699 15.9035287,14.9771486 15.8979575,14.9896792 L15.8876757,14.9933816 L19.236103,14.9933816 C20.129624,14.9933816 20.7968977,15.3023662 21.2379242,15.7638601 L22.8807625,14.7216663 L22.9105909,14.6647439 C23.6962927,13.1720128 24.4257212,12.3720732 25.4917475,12.0102256 L25.6726026,11.9539304 L25.8505566,11.9077258 C27.2042788,11.588597 28.5763581,12.0011784 29.1941142,12.8457746 Z M3.92427501,18.1011111 L1.5331639,20.4922222 L8.52871945,27.4877778 L10.9198306,25.0966667 L3.92427501,18.1011111 Z M26.1928775,13.3589373 C25.3916153,13.5480598 24.857436,14.1150738 24.1160601,15.5801467 C24.0706072,15.6699685 24.0075995,15.7493376 23.9311253,15.8137485 L23.8503137,15.8730064 L21.8677328,17.1317272 C22.0054719,18.3754427 21.1923999,19.716802 19.4285166,19.8077372 L19.236103,19.812634 L16.0462577,19.8110964 C15.2987009,19.5752933 15.3241039,18.6180425 15.9408577,18.3588542 L16.0431281,18.323938 C16.0458512,18.3232085 16.0484593,18.322477 16.0509524,18.3217435 L19.236103,18.3215946 C20.2222993,18.3215946 20.5772517,17.5689017 20.3009602,17.0270822 L19.8725904,16.626 C19.7419705,16.5527032 19.577272,16.5062356 19.3850412,16.4904089 L19.236103,16.484421 L15.8876757,16.484421 C15.5709942,16.484421 15.3064619,16.3628643 14.9901338,16.1436598 C14.925481,16.0988576 14.8595368,16.0503579 14.7857813,15.9937163 L14.6684745,15.9020919 L14.2261256,15.5499913 C14.0559617,15.4187976 13.9267682,15.329344 13.8073963,15.2615218 C13.6993249,15.2001202 13.6172148,15.1675941 13.5657021,15.1570398 L13.5328772,15.1531358 L10.3644184,15.1531358 C9.89213549,15.1531358 9.11867812,15.5752549 8.51635526,16.1155776 L8.36961317,16.252945 L6.93425772,17.7580964 L6.92792673,17.7585647 L6.15358666,18.5152767 L6.774,19.155 L10.187,22.567 C10.3344575,22.4969212 10.5003958,22.4370114 10.6880856,22.3863727 C10.6880856,22.3863727 11.6530944,22.3677098 13.5831118,22.3303841 L13.5875904,22.327 L20.2374131,22.3285483 C20.4335028,22.3285483 23.2833492,19.6524343 24.5176532,18.3432336 L24.7291108,18.1147641 L24.8186861,18.0143939 C25.2611691,17.5103957 26.5846961,15.4569766 27.3808558,14.0276562 L27.5838569,13.654948 L27.6744542,13.4794441 L27.595786,13.4425614 C27.2413421,13.2917797 26.7275538,13.2328918 26.1928775,13.3589373 Z M11.5,9.8 C11.7761424,9.8 12,10.0238576 12,10.3 C12,10.5761424 11.7761424,10.8 11.5,10.8 L1.5,10.8 C1.22385763,10.8 1,10.5761424 1,10.3 C1,10.0238576 1.22385763,9.8 1.5,9.8 L11.5,9.8 Z M11.5,6.8 C11.7761424,6.8 12,7.02385763 12,7.3 C12,7.57614237 11.7761424,7.8 11.5,7.8 L1.5,7.8 C1.22385763,7.8 1,7.57614237 1,7.3 C1,7.02385763 1.22385763,6.8 1.5,6.8 L11.5,6.8 Z M11.5,3.8 C11.7761424,3.8 12,4.02385763 12,4.3 C12,4.57614237 11.7761424,4.8 11.5,4.8 L1.5,4.8 C1.22385763,4.8 1,4.57614237 1,4.3 C1,4.02385763 1.22385763,3.8 1.5,3.8 L11.5,3.8 Z" id="Combined-Shape" fill="#313131"></path>
                                    <path d="M19.4899734,0.183661751 C19.7858998,-0.0612205837 20.2141002,-0.0612205837 20.5100266,0.183661751 L20.5100266,0.183661751 L20.9025981,0.508518894 L20.986477,0.588875614 L26.5939055,6.80230419 C26.7265672,6.94930269 26.8,7.14027644 26.8,7.33828571 L26.8,7.33828571 L26.8,11.9428571 C26.8,12.8578278 26.0578278,13.6 25.1428571,13.6 L25.1428571,13.6 L22.5714286,13.6 C21.6564579,13.6 20.9142857,12.8578278 20.9142857,11.9428571 L20.9142857,11.9428571 L20.9142857,8.51428571 C20.9142857,8.48297066 20.8884579,8.45714286 20.8571429,8.45714286 L20.8571429,8.45714286 L19.1428571,8.45714286 C19.1115421,8.45714286 19.0857143,8.48297066 19.0857143,8.51428571 L19.0857143,8.51428571 L19.0857143,11.9428571 C19.0857143,12.8578278 18.3435421,13.6 17.4285714,13.6 L17.4285714,13.6 L14.8571429,13.6 C13.9421722,13.6 13.2,12.8578278 13.2,11.9428571 L13.2,11.9428571 L13.2,7.33828571 C13.2,7.14027644 13.2734328,6.94930269 13.4060945,6.80230419 L13.4060945,6.80230419 L19.013523,0.588875614 L19.0974019,0.508518894 Z M20,1.883 L14.8,7.645 L14.8,11.9428571 C14.8,11.9637338 14.811479,11.9821718 14.8284102,11.9921441 L14.8284102,11.9921441 L14.8571429,12 L17.4285714,12 C17.4598865,12 17.4857143,11.9741722 17.4857143,11.9428571 L17.4857143,11.9428571 L17.4857143,8.51428571 C17.4857143,7.59931506 18.2278865,6.85714286 19.1428571,6.85714286 L19.1428571,6.85714286 L20.8571429,6.85714286 C21.7721135,6.85714286 22.5142857,7.59931506 22.5142857,8.51428571 L22.5142857,8.51428571 L22.5142857,11.9428571 C22.5142857,11.9741722 22.5401135,12 22.5714286,12 L22.5714286,12 L25.1428571,12 C25.1741722,12 25.2,11.9741722 25.2,11.9428571 L25.2,11.9428571 L25.2,7.646 L20,1.883 Z M7,9.3 C7.55228475,9.3 8,9.74771525 8,10.3 C8,10.8522847 7.55228475,11.3 7,11.3 C6.44771525,11.3 6,10.8522847 6,10.3 C6,9.74771525 6.44771525,9.3 7,9.3 Z M4,6.3 C4.55228475,6.3 5,6.74771525 5,7.3 C5,7.85228475 4.55228475,8.3 4,8.3 C3.44771525,8.3 3,7.85228475 3,7.3 C3,6.74771525 3.44771525,6.3 4,6.3 Z M9,3.3 C9.55228475,3.3 10,3.74771525 10,4.3 C10,4.85228475 9.55228475,5.3 9,5.3 C8.44771525,5.3 8,4.85228475 8,4.3 C8,3.74771525 8.44771525,3.3 9,3.3 Z" id="Combined-Shape" fill="url(#linearGradient-1)"></path>
                                </g>
                            </g>
                        </g>
                    </g>
                </g>
            </g>
        </g>
    </g>
</svg>