<?xml version="1.0" encoding="UTF-8"?>
<svg width="30px" height="30px" viewBox="0 0 30 30" version="1.1" xmlns="http://www.w3.org/2000/svg" xmlns:xlink="http://www.w3.org/1999/xlink">
    <title>communication</title>
    <g id="01.-Introduction" stroke="none" stroke-width="1" fill="none" fill-rule="evenodd">
        <g id="101-OCBC-Design-System-Introduction" transform="translate(-645.000000, -1477.000000)">
            <g id="communication-pillars" transform="translate(628.000000, 1452.000000)">
                <g id="communication" transform="translate(16.000000, 24.000000)">
                    <path d="M9.88977863,22.0536705 C10.3360659,22.4999466 10.3360659,23.2235611 9.88977863,23.6699135 C9.44349141,24.1161895 8.71985874,24.1161895 8.27349518,23.6699135 C7.82720796,23.2236375 7.82720796,22.5000229 8.27349518,22.0536705 C8.71985874,21.6073182 9.44349141,21.6073182 9.88977863,22.0536705 Z M14.4612072,22.0536705 C14.9074944,22.4999466 14.9074944,23.2235611 14.4612072,23.6699135 C14.01492,24.1161895 13.2912873,24.1161895 12.8449237,23.6699135 C12.3986365,23.2236375 12.3986365,22.5000229 12.8449237,22.0536705 C13.291211,21.6073182 14.0148436,21.6073182 14.4612072,22.0536705 Z M19.0326358,22.0536705 C19.478923,22.4999466 19.478923,23.2235611 19.0326358,23.6699135 C18.5863486,24.1161895 17.8627159,24.1161895 17.4163523,23.6699135 C16.9700651,23.2236375 16.9700651,22.5000229 17.4163523,22.0536705 C17.8627159,21.6073182 18.5862722,21.6073182 19.0326358,22.0536705 Z" id="Combined-Shape" fill="#EB2629"></path>
                    <path d="M18.6455357,1.42875 C25.181234,1.42875 30.5157864,5.94240246 30.5157864,11.5166071 C30.5157864,13.5147536 29.8255079,15.4477222 28.5224489,17.1052735 C28.320162,17.3621613 28.3113496,17.6822461 28.4808842,17.8996633 L28.5269746,17.9517827 L30.170721,19.5955885 C30.5076293,19.9324968 30.6084495,20.438466 30.4260301,20.8777612 C30.2566066,21.2884848 29.8711343,21.5656153 29.4332625,21.6007406 L29.3386905,21.6045238 L25.0817143,21.604 L25.068392,21.7042862 C24.3406452,26.5872368 19.5264677,30.3334748 13.7251395,30.5091486 L13.5098299,30.5140178 L13.2988095,30.5155952 L2.60553571,30.5155952 C2.12933353,30.5155952 1.69973451,30.2288471 1.51842928,29.7893962 C1.34801155,29.378751 1.42444442,28.9106997 1.70929369,28.5762171 L1.77350886,28.5066563 L3.41735553,26.8628692 C3.63308866,26.647096 3.64102069,26.294615 3.42175257,26.0161622 C2.11879737,24.3587428 1.42854293,22.4257644 1.42854293,20.4276786 C1.42854293,17.0626026 3.39614384,13.9856192 6.59101458,12.1195022 L6.81142857,11.9937143 L6.80017675,11.8950197 C6.78193474,11.7277937 6.77541667,11.6345549 6.77541667,11.5166071 C6.77541667,5.94243427 12.1098706,1.42875 18.6455357,1.42875 Z M13.298869,12.6935119 C8.04040574,12.6935119 3.78244048,16.17724 3.78244048,20.4277381 C3.78244048,21.8228019 4.24862183,23.1851716 5.1357495,24.3828304 L5.27197009,24.5612274 C6.10049236,25.61408 6.14312775,27.0516107 5.43221367,28.1025071 L5.38971429,28.1617143 L13.298869,28.1619048 C18.4907837,28.1619048 22.7073411,24.7658603 22.8132575,20.5887748 L22.8152976,20.4277381 C22.8152976,16.17724 18.5573324,12.6935119 13.298869,12.6935119 Z M18.6455357,3.78238095 C13.6500075,3.78238095 9.55151042,6.93172444 9.16578311,10.9045279 L9.15942857,10.9748571 L9.37651132,10.9077777 C10.5238012,10.5649474 11.7292909,10.3733483 12.9620186,10.3437958 L13.298869,10.3397619 C19.2891956,10.3397619 24.3229508,14.1489954 25.0684516,19.1511081 L25.0817143,19.2508571 L26.5542857,19.2508571 L26.5122544,19.1914395 C25.8266688,18.1780144 25.8418261,16.8051395 26.5866535,15.7643601 L26.6724163,15.6501198 C27.64798,14.4101478 28.1619643,12.9813629 28.1619643,11.5166071 C28.1619643,7.26610905 23.903999,3.78238095 18.6455357,3.78238095 Z" id="Combined-Shape" fill="#313131"></path>
                </g>
            </g>
        </g>
    </g>
</svg>