<svg xmlns="http://www.w3.org/2000/svg" width="24" height="24" viewBox="0 0 24 24">
    <g fill="none" fill-rule="evenodd">
        <path fill="#313131" d="M16.934 0c1.536 0 2.78 1.245 2.78 2.78v10.11c0 1.536-1.244 2.78-2.78 2.78H6.824c-1.535 0-2.78-1.244-2.78-2.78V2.78C4.044 1.245 5.289 0 6.824 0h10.11zm0 1.714H6.824c-.565 0-1.027.44-1.063.996l-.003.07v10.11c0 .565.44 1.028.996 1.064l.07.002h10.11c.565 0 1.028-.44 1.064-.996l.002-.07V2.78c0-.565-.44-1.027-.996-1.063l-.07-.003z" transform="translate(2.143 2.143)"/>
        <path fill="#EB2629" d="M14.862 9.099H8.796c-.503 0-.91.34-.91.758 0 .419.407.758.91.758h6.066c.502 0 .91-.34.91-.758 0-.419-.408-.758-.91-.758z" transform="translate(2.143 2.143)"/>
        <path fill="#313131" d="M14.154 14.66v2.418c0 .619-.501 1.12-1.12 1.12H3.792c-1.256 0-2.275-1.019-2.275-2.275V6.68c0-.618.502-1.12 1.12-1.12h2.419V4.044h-2.42C1.18 4.044 0 5.224 0 6.68v9.243c0 2.094 1.697 3.791 3.791 3.791h9.244c1.455 0 2.635-1.18 2.635-2.636V14.66h-1.516z" transform="translate(2.143 2.143)"/>
        <path fill="#EB2629" d="M8.796 6.445h6.066c.502 0 .91-.34.91-.758 0-.419-.408-.758-.91-.758H8.796c-.503 0-.91.339-.91.758s.407.758.91.758z" transform="translate(2.143 2.143)"/>
    </g>
</svg>
