<?xml version="1.0" encoding="UTF-8"?>
<svg width="30px" height="30px" viewBox="0 0 30 30" version="1.1" xmlns="http://www.w3.org/2000/svg" xmlns:xlink="http://www.w3.org/1999/xlink">
    <title>elements</title>
    <g id="01.-Introduction" stroke="none" stroke-width="1" fill="none" fill-rule="evenodd">
        <g id="101-OCBC-Design-System-Introduction" transform="translate(-437.000000, -1477.000000)">
            <g id="element-pillars" transform="translate(420.000000, 1452.000000)">
                <g id="brand/iconography/content/56/placeholder" transform="translate(16.000000, 24.000000)">
                    <path d="M24.5028571,1.71428571 C25.6890859,1.71428571 26.657733,2.64586322 26.7171151,3.81733469 L26.72,3.93142857 L26.72,5.00571429 L28.0685714,5.00571429 C29.2165347,5.00571429 30.1607276,5.8781594 30.2742674,6.99616717 L30.2828294,7.10876327 L30.2857143,7.22285714 L30.2857143,14.9028571 C30.2857143,16.0890859 29.3541368,17.057733 28.1826653,17.1171151 L28.0685714,17.12 L26.72,17.12 L26.72,28.0685714 C26.72,29.2165347 25.8475549,30.1607276 24.7295471,30.2742674 L24.616951,30.2828294 L24.5028571,30.2857143 L7.22285714,30.2857143 C6.0366284,30.2857143 5.06798124,29.3541368 5.00859922,28.1826653 L5.00571429,28.0685714 L5.00571429,26.9942857 L3.93142857,26.9942857 C2.78346527,26.9942857 1.83927244,26.1218406 1.72573257,25.0038328 L1.71717065,24.8912367 L1.71428571,24.7771429 L1.71428571,20.3885714 C1.71428571,19.2023427 2.64586322,18.2336955 3.81733469,18.1743135 L3.93142857,18.1714286 L5.00571429,18.1708571 L5.00571429,3.93142857 C5.00571429,2.78346527 5.8781594,1.83927244 6.99616717,1.72573257 L7.10876327,1.71717065 L7.22285714,1.71428571 L24.5028571,1.71428571 Z M24.4794286,3.95371429 L7.24571429,3.95371429 L7.24571429,18.1708571 L11.6114286,18.1714286 C12.7976573,18.1714286 13.7663045,19.1030061 13.8256865,20.2744776 L13.8285714,20.3885714 L13.8285714,24.7771429 C13.8285714,25.9633716 12.8969939,26.9320188 11.7255224,26.9914008 L11.6114286,26.9942857 L7.24571429,26.9937143 L7.24571429,28.0457143 L24.4794286,28.0457143 L24.4794286,17.1194286 L19.2914286,17.12 C18.1051998,17.12 17.1365527,16.1884225 17.0771706,15.016951 L17.0742857,14.9028571 L17.0742857,7.22285714 C17.0742857,6.0366284 18.0058632,5.06798124 19.1773347,5.00859922 L19.2914286,5.00571429 L24.4794286,5.00514286 L24.4794286,3.95371429 Z M11.5885714,20.4114286 L3.95428571,20.4114286 L3.95428571,24.7537143 L11.5885714,24.7537143 L11.5885714,20.4114286 Z M28.0457143,7.24571429 L19.3142857,7.24571429 L19.3142857,14.88 L28.0457143,14.88 L28.0457143,7.24571429 Z" id="Combined-Shape" fill="#313131"></path>
                    <path d="M13.9830204,11.995298 C13.9195429,12.0223347 13.8490122,12.0370286 13.7749551,12.0370286 C13.8490122,12.0370286 13.9195429,12.0223347 13.9830204,11.995298 C14.1105633,11.9412245 14.2128327,11.8389551 14.2663184,11.712 C14.2128327,11.8389551 14.1105633,11.9412245 13.9830204,11.995298 M9.73061224,11.5039347 C9.73061224,11.4304653 9.74530612,11.3605224 9.77234286,11.2970449 C9.74530612,11.3605224 9.73061224,11.4304653 9.73061224,11.5039347 C9.73061224,11.5779918 9.74530612,11.6479347 9.77234286,11.712 C9.74530612,11.6479347 9.73061224,11.5779918 9.73061224,11.5039347 M13.7749551,10.9714286 C13.8490122,10.9714286 13.9195429,10.9861224 13.9830204,11.0131592 C14.1105633,11.0672327 14.2128327,11.169502 14.2663184,11.2970449 C14.2128327,11.169502 14.1105633,11.0672327 13.9830204,11.0131592 C13.9195429,10.9861224 13.8490122,10.9714286 13.7749551,10.9714286 M13.7749551,10.3836735 L10.2631184,10.3836735 C9.64538776,10.3836735 9.14285714,10.8862041 9.14285714,11.5039347 C9.14285714,12.1222531 9.64538776,12.6247837 10.2631184,12.6247837 L13.7749551,12.6247837 C14.3932735,12.6247837 14.8963918,12.1222531 14.8963918,11.5039347 C14.8963918,10.8862041 14.3932735,10.3836735 13.7749551,10.3836735" id="Fill-3" fill="#EB2629"></path>
                    <path d="M13.9830204,8.46876735 C13.9195429,8.49580408 13.8490122,8.51049796 13.7749551,8.51049796 C13.8490122,8.51049796 13.9195429,8.49580408 13.9830204,8.46876735 C14.1105633,8.41469388 14.2128327,8.31242449 14.2663184,8.18546939 C14.2128327,8.31242449 14.1105633,8.41469388 13.9830204,8.46876735 M9.73061224,7.97740408 C9.73061224,7.90393469 9.74530612,7.83399184 9.77234286,7.77051429 C9.74530612,7.83399184 9.73061224,7.90393469 9.73061224,7.97740408 C9.73061224,8.05146122 9.74530612,8.12140408 9.77234286,8.18546939 C9.74530612,8.12140408 9.73061224,8.05146122 9.73061224,7.97740408 M13.7749551,7.44489796 C13.8490122,7.44489796 13.9195429,7.45959184 13.9830204,7.48662857 C14.1105633,7.54070204 14.2128327,7.64297143 14.2663184,7.77051429 C14.2128327,7.64297143 14.1105633,7.54070204 13.9830204,7.48662857 C13.9195429,7.45959184 13.8490122,7.44489796 13.7749551,7.44489796 M13.7749551,6.85714286 L10.2631184,6.85714286 C9.64538776,6.85714286 9.14285714,7.35967347 9.14285714,7.97740408 C9.14285714,8.59572245 9.64538776,9.09825306 10.2631184,9.09825306 L13.7749551,9.09825306 C14.3932735,9.09825306 14.8963918,8.59572245 14.8963918,7.97740408 C14.8963918,7.35967347 14.3932735,6.85714286 13.7749551,6.85714286" id="Fill-3" fill="#EB2629"></path>
                    <path d="M13.9830204,15.4770416 C13.9195429,15.5040784 13.8490122,15.5187722 13.7749551,15.5187722 C13.8490122,15.5187722 13.9195429,15.5040784 13.9830204,15.4770416 C14.1105633,15.4229682 14.2128327,15.3206988 14.2663184,15.1937437 C14.2128327,15.3206988 14.1105633,15.4229682 13.9830204,15.4770416 M9.73061224,14.9856784 C9.73061224,14.912209 9.74530612,14.8422661 9.77234286,14.7787886 C9.74530612,14.8422661 9.73061224,14.912209 9.73061224,14.9856784 C9.73061224,15.0597355 9.74530612,15.1296784 9.77234286,15.1937437 C9.74530612,15.1296784 9.73061224,15.0597355 9.73061224,14.9856784 M13.7749551,14.4531722 C13.8490122,14.4531722 13.9195429,14.4678661 13.9830204,14.4949029 C14.1105633,14.5489763 14.2128327,14.6512457 14.2663184,14.7787886 C14.2128327,14.6512457 14.1105633,14.5489763 13.9830204,14.4949029 C13.9195429,14.4678661 13.8490122,14.4531722 13.7749551,14.4531722 M13.7749551,13.8654171 L10.2631184,13.8654171 C9.64538776,13.8654171 9.14285714,14.3679478 9.14285714,14.9856784 C9.14285714,15.6039967 9.64538776,16.1065273 10.2631184,16.1065273 L13.7749551,16.1065273 C14.3932735,16.1065273 14.8963918,15.6039967 14.8963918,14.9856784 C14.8963918,14.3679478 14.3932735,13.8654171 13.7749551,13.8654171" id="Fill-5" fill="#EB2629"></path>
                    <path d="M21.9830204,21.7627559 C21.9195429,21.7897927 21.8490122,21.8044865 21.7749551,21.8044865 C21.8490122,21.8044865 21.9195429,21.7897927 21.9830204,21.7627559 C22.1105633,21.7086824 22.2128327,21.6064131 22.2663184,21.479458 C22.2128327,21.6064131 22.1105633,21.7086824 21.9830204,21.7627559 M17.7306122,21.2713927 C17.7306122,21.1979233 17.7453061,21.1279804 17.7723429,21.0645029 C17.7453061,21.1279804 17.7306122,21.1979233 17.7306122,21.2713927 C17.7306122,21.3454498 17.7453061,21.4153927 17.7723429,21.479458 C17.7453061,21.4153927 17.7306122,21.3454498 17.7306122,21.2713927 M21.7749551,20.7388865 C21.8490122,20.7388865 21.9195429,20.7535804 21.9830204,20.7806171 C22.1105633,20.8346906 22.2128327,20.93696 22.2663184,21.0645029 C22.2128327,20.93696 22.1105633,20.8346906 21.9830204,20.7806171 C21.9195429,20.7535804 21.8490122,20.7388865 21.7749551,20.7388865 M21.7749551,20.1511314 L18.2631184,20.1511314 C17.6453878,20.1511314 17.1428571,20.653662 17.1428571,21.2713927 C17.1428571,21.889711 17.6453878,22.3922416 18.2631184,22.3922416 L21.7749551,22.3922416 C22.3932735,22.3922416 22.8963918,21.889711 22.8963918,21.2713927 C22.8963918,20.653662 22.3932735,20.1511314 21.7749551,20.1511314" id="Fill-5" fill="#EB2629"></path>
                    <path d="M21.9830204,25.1913273 C21.9195429,25.2183641 21.8490122,25.233058 21.7749551,25.233058 C21.8490122,25.233058 21.9195429,25.2183641 21.9830204,25.1913273 C22.1105633,25.1372539 22.2128327,25.0349845 22.2663184,24.9080294 C22.2128327,25.0349845 22.1105633,25.1372539 21.9830204,25.1913273 M17.7306122,24.6999641 C17.7306122,24.6264947 17.7453061,24.5565518 17.7723429,24.4930743 C17.7453061,24.5565518 17.7306122,24.6264947 17.7306122,24.6999641 C17.7306122,24.7740212 17.7453061,24.8439641 17.7723429,24.9080294 C17.7453061,24.8439641 17.7306122,24.7740212 17.7306122,24.6999641 M21.7749551,24.167458 C21.8490122,24.167458 21.9195429,24.1821518 21.9830204,24.2091886 C22.1105633,24.263262 22.2128327,24.3655314 22.2663184,24.4930743 C22.2128327,24.3655314 22.1105633,24.263262 21.9830204,24.2091886 C21.9195429,24.1821518 21.8490122,24.167458 21.7749551,24.167458 M21.7749551,23.5797029 L18.2631184,23.5797029 C17.6453878,23.5797029 17.1428571,24.0822335 17.1428571,24.6999641 C17.1428571,25.3182824 17.6453878,25.8208131 18.2631184,25.8208131 L21.7749551,25.8208131 C22.3932735,25.8208131 22.8963918,25.3182824 22.8963918,24.6999641 C22.8963918,24.0822335 22.3932735,23.5797029 21.7749551,23.5797029" id="Fill-5" fill="#EB2629"></path>
                </g>
            </g>
        </g>
    </g>
</svg>