<svg xmlns="http://www.w3.org/2000/svg" width="40" height="40" viewBox="0 0 40 40">
    <g fill="none" fill-rule="evenodd" transform="translate(2.857 1.429)">
        <path fill="#313131" d="M19.942 25.203v-7.659c0-.433-.189-.892-.497-1.196-.293-.295-.776-.516-1.197-.497-.436.019-.892.162-1.197.497-.305.33-.497.738-.497 1.196v7.659c0 .433.188.892.497 1.197.293.293.776.516 1.197.497.436-.019.892-.162 1.197-.497.304-.33.497-.737.497-1.197"/>
        <path fill="#EB2629" d="M26.713 25.203V13.1c0-.433-.189-.892-.498-1.197-.292-.294-.774-.516-1.196-.497-.436.019-.892.162-1.197.497-.305.331-.496.737-.496 1.197v12.103c0 .433.187.892.496 1.197.294.293.775.516 1.197.497.437-.019.892-.162 1.197-.497.304-.33.497-.737.497-1.197"/>
        <path fill="#313131" fill-rule="nonzero" d="M31.872 0c.754 0 1.37.583 1.425 1.322l.004.107v31.776c0 .753-.583 1.37-1.322 1.425l-.107.004H4.286c-.753 0-1.37-.583-1.425-1.322l-.004-.107V11.067c0-.789.64-1.428 1.429-1.428.753 0 1.37.582 1.425 1.322l.004.106v20.71h24.729V2.856H14.755c-.753 0-1.37-.583-1.424-1.322l-.004-.106c0-.753.582-1.37 1.322-1.425L14.755 0h17.117z"/>
        <path fill="#313131" fill-rule="nonzero" d="M13.752.37L3.326 9.835c-.968.878-.347 2.487.96 2.487h10.426c.789 0 1.429-.64 1.429-1.429V1.43c0-1.24-1.471-1.891-2.39-1.058zm-.47 4.285v4.809H7.986l5.298-4.809z"/>
        <path fill="#FFF" stroke="#313131" stroke-width="3" d="M9.214 29.357H3.643v5.662l2.786-.99 2.785.99v-5.662z"/>
        <path fill="#313131" d="M10.714 27.857v9.286L6.43 35.62l-4.286 1.522v-9.286h8.571zM8.571 30H4.286v4.108l1.426-.506c.412-.147.858-.163 1.278-.049l.156.049 1.425.506V30z"/>
        <circle cx="6.429" cy="24.286" r="4.929" fill="#FFF" stroke="#EB2629" stroke-width="3"/>
        <path fill="#EB2629" d="M6.429 17.857c3.55 0 6.428 2.878 6.428 6.429 0 3.55-2.878 6.428-6.428 6.428S0 27.836 0 24.286s2.878-6.429 6.429-6.429zm0 2.143c-2.367 0-4.286 1.919-4.286 4.286 0 2.367 1.919 4.285 4.286 4.285 2.367 0 4.285-1.918 4.285-4.285S8.796 20 6.43 20z"/>
    </g>
</svg>
