<?xml version="1.0" encoding="UTF-8"?>
<svg width="716px" height="183px" viewBox="0 0 716 183" version="1.1" xmlns="http://www.w3.org/2000/svg" xmlns:xlink="http://www.w3.org/1999/xlink">
    <!-- Generator: Sketch 63 (92445) - https://sketch.com -->
    <title>FOKUS</title>
    <desc>Created with Sketch.</desc>
    <g id="Page-1" stroke="none" stroke-width="1" fill="none" fill-rule="evenodd" opacity="0.1">
        <g id="508-ocbc-tentang-kami-csr" transform="translate(-82.000000, -1260.000000)" fill="#313131" fill-rule="nonzero">
            <path d="M123.25,1438 L123.25,1369.25 L173.75,1369.25 L173.75,1340 L123.25,1340 L123.25,1294 L181.25,1294 L185.5,1264.75 L82.25,1264.75 L82.25,1438 L123.25,1438 Z M266.25,1442.25 C282.416667,1442.25 296.375,1438.625 308.125,1431.375 C319.875,1424.125 328.875,1413.66667 335.125,1400 C341.375,1386.33333 344.5,1370.08333 344.5,1351.25 C344.5,1322.41667 337.625,1300.08333 323.875,1284.25 C310.125,1268.41667 290.916667,1260.5 266.25,1260.5 C250.083333,1260.5 236.166667,1264.125 224.5,1271.375 C212.833333,1278.625 203.875,1289.08333 197.625,1302.75 C191.375,1316.41667 188.25,1332.58333 188.25,1351.25 C188.25,1370.41667 191.375,1386.79167 197.625,1400.375 C203.875,1413.95833 212.833333,1424.33333 224.5,1431.5 C236.166667,1438.66667 250.083333,1442.25 266.25,1442.25 Z M266.25,1412.25 C254.583333,1412.25 245.833333,1407.41667 240,1397.75 C234.166667,1388.08333 231.25,1372.58333 231.25,1351.25 C231.25,1329.91667 234.125,1314.45833 239.875,1304.875 C245.625,1295.29167 254.416667,1290.5 266.25,1290.5 C278.083333,1290.5 286.916667,1295.25 292.75,1304.75 C298.583333,1314.25 301.5,1329.75 301.5,1351.25 C301.5,1372.75 298.625,1388.29167 292.875,1397.875 C287.125,1407.45833 278.25,1412.25 266.25,1412.25 Z M407,1438 L407,1264.75 L366,1264.75 L366,1438 L407,1438 Z M511,1438 L451.25,1342.5 L506.5,1264.75 L463.25,1264.75 L408.25,1345.5 L463.5,1438 L511,1438 Z M584,1442.25 C598.666667,1442.25 611.083333,1439.58333 621.25,1434.25 C631.416667,1428.91667 639.041667,1421.58333 644.125,1412.25 C649.208333,1402.91667 651.75,1392.33333 651.75,1380.5 L651.75,1380.5 L651.75,1264.75 L610.75,1264.75 L610.75,1378.75 C610.75,1389.91667 608.625,1398.20833 604.375,1403.625 C600.125,1409.04167 593.333333,1411.75 584,1411.75 C574.833333,1411.75 568.125,1409.04167 563.875,1403.625 C559.625,1398.20833 557.5,1389.91667 557.5,1378.75 L557.5,1378.75 L557.5,1264.75 L516.5,1264.75 L516.5,1380.5 C516.5,1399.33333 522.25,1414.33333 533.75,1425.5 C545.25,1436.66667 562,1442.25 584,1442.25 Z M729,1442.25 C743.166667,1442.25 755.416667,1439.95833 765.75,1435.375 C776.083333,1430.79167 784,1424.375 789.5,1416.125 C795,1407.875 797.75,1398.33333 797.75,1387.5 C797.75,1372.33333 793.583333,1360.625 785.25,1352.375 C776.916667,1344.125 763.916667,1337.16667 746.25,1331.5 C736.916667,1328.5 729.916667,1325.91667 725.25,1323.75 C720.583333,1321.58333 717.333333,1319.29167 715.5,1316.875 C713.666667,1314.45833 712.75,1311.33333 712.75,1307.5 C712.75,1302 714.833333,1297.79167 719,1294.875 C723.166667,1291.95833 728.833333,1290.5 736,1290.5 C749.5,1290.5 762.166667,1295.33333 774,1305 L774,1305 L793,1282.75 C785.166667,1275.25 776.458333,1269.66667 766.875,1266 C757.291667,1262.33333 746,1260.5 733,1260.5 C721,1260.5 710.25,1262.54167 700.75,1266.625 C691.25,1270.70833 683.833333,1276.54167 678.5,1284.125 C673.166667,1291.70833 670.5,1300.5 670.5,1310.5 C670.5,1323.5 674.541667,1334.25 682.625,1342.75 C690.708333,1351.25 704.333333,1358.41667 723.5,1364.25 C732,1366.91667 738.5,1369.41667 743,1371.75 C747.5,1374.08333 750.666667,1376.70833 752.5,1379.625 C754.333333,1382.54167 755.25,1386.16667 755.25,1390.5 C755.25,1397.16667 752.791667,1402.375 747.875,1406.125 C742.958333,1409.875 736.25,1411.75 727.75,1411.75 C719.416667,1411.75 711.708333,1410.33333 704.625,1407.5 C697.541667,1404.66667 690.666667,1400.41667 684,1394.75 L684,1394.75 L663.25,1417.5 C671.083333,1425 680.458333,1431 691.375,1435.5 C702.291667,1440 714.833333,1442.25 729,1442.25 Z" id="FOKUS"></path>
        </g>
    </g>
</svg>