<svg xmlns="http://www.w3.org/2000/svg" xmlns:xlink="http://www.w3.org/1999/xlink" width="40" height="40" viewBox="0 0 40 40">
    <defs>
        <path id="prefix__a" d="M19.836 12.095l-7.179 6.768-3.143-3.225-.099-.093c-.608-.526-1.528-.507-2.114.064-.619.603-.632 1.594-.028 2.213l4.218 4.327.097.091c.6.52 1.508.51 2.096-.045l8.299-7.823.095-.097c.536-.598.532-1.518-.03-2.115-.307-.326-.722-.491-1.138-.491-.385 0-.77.141-1.074.426z"/>
    </defs>
    <g fill="none" fill-rule="evenodd" transform="translate(5.716 2.857)">
        <path fill="#FFF" d="M16.241.57l.143.125c2.488 2.425 5.392 3.65 9.168 3.86 2.038.114 3.657 1.799 3.688 3.837.004.278.01.538.02.79l.01.278.015.822c.085 5.9-.2 9.062-1.513 12.62-.92 2.496-2.314 4.667-4.142 6.453-2.076 2.028-4.79 3.635-8.06 4.779-.124.043-.25.077-.375.102-.178.036-.36.054-.544.054-.182 0-.363-.018-.542-.054-.13-.026-.255-.06-.372-.101-3.277-1.143-5.993-2.75-8.07-4.777-1.83-1.785-3.223-3.956-4.142-6.45-.506-1.373-.87-2.842-1.115-4.422-.36-2.326-.444-4.32-.399-7.721l.023-1.34c.015-.34.025-.676.03-1.033.03-2.038 1.65-3.723 3.688-3.837 3.661-.204 6.504-1.362 8.941-3.643l.258-.246c.931-.854 2.321-.887 3.29-.096zm-1.59 2.183l-.171.164c-1.404 1.305-2.911 2.29-4.592 3-1.802.763-3.76 1.194-5.987 1.319-.636.035-1.144.562-1.153 1.195-.004.29-.01.566-.02.828l-.012.259-.018 1.196c-.067 5.388.198 8.151 1.346 11.266 1.653 4.486 4.994 7.592 10.241 9.5l.35.124.017.001.017-.001.014-.004c5.434-1.9 8.88-5.043 10.57-9.626 1.232-3.34 1.452-6.287 1.334-12.44-.015-.353-.026-.714-.031-1.102-.01-.634-.517-1.161-1.153-1.196-2.227-.125-4.187-.556-5.987-1.319-1.681-.711-3.189-1.696-4.592-3l-.173-.164z"/>
        <use fill="#FFF" xlink:href="#prefix__a"/>
    </g>
</svg>
