<svg xmlns="http://www.w3.org/2000/svg" width="40" height="40" viewBox="0 0 40 40">
    <g fill="none">
        <path fill="#313131" d="M8.933 7.701c.883-.842 2.327-.26 2.412.924l.003.11v5.076c0 .789-.64 1.429-1.428 1.429-.753 0-1.37-.583-1.425-1.322l-.004-.107v-1.737l-4.965 4.739 4.965 4.49v-1.03c0-.752.583-1.37 1.322-1.424l.107-.004h9.788c.79 0 1.429.64 1.429 1.429 0 .753-.583 1.37-1.322 1.425l-.107.003h-8.36v2.82c0 1.2-1.38 1.85-2.301 1.13l-.085-.07L.47 17.9c-.586-.53-.626-1.428-.11-2.008l.082-.084L8.933 7.7z" transform="translate(3.571 7.143)"/>
        <path fill="#313131" d="M22.169 1.428C22.169.2 23.604-.44 24.515.333l.082.075 8.534 8.356c.538.527.57 1.374.095 1.94l-.084.09-8.668 8.67c-.874.873-2.349.298-2.435-.9l-.004-.11v-3.215h-7.512c-.753 0-1.37-.582-1.425-1.321l-.004-.107c0-.753.583-1.37 1.322-1.425l.107-.003h8.94c.754 0 1.37.582 1.425 1.322l.004.106v1.193L30.1 9.795l-5.074-4.969v1.842c0 .753-.583 1.37-1.322 1.424l-.107.004H13.81c-.79 0-1.429-.64-1.429-1.428 0-.754.583-1.37 1.322-1.425l.107-.004h8.36v-3.81z" transform="translate(3.571 7.143)"/>
    </g>
</svg>
