<svg xmlns="http://www.w3.org/2000/svg" width="40" height="40" viewBox="0 0 40 40">
    <g fill="none" fill-rule="evenodd">
        <path fill="#313131" d="M16.23 26.045c-.331.191-.536.545-.536.93v1.062h-2.842v-5.54c1.386-.453 2.391-1.761 2.391-3.302 0-.592-.478-1.07-1.067-1.07-.59 0-1.067.478-1.067 1.07 0 .733-.594 1.328-1.324 1.328-.728 0-1.322-.595-1.322-1.328 0-.592-.479-1.07-1.068-1.07-.59 0-1.067.478-1.067 1.07 0 1.54 1.004 2.849 2.39 3.302v5.54H7.877v-1.062c0-.385-.205-.739-.536-.93-2.77-1.598-4.492-4.582-4.492-7.786 0-4.947 4.009-8.974 8.937-8.974 4.928 0 8.936 4.027 8.936 8.974 0 3.204-1.72 6.188-4.492 7.786zm-.536 5.03c0 2.164-1.753 3.925-3.909 3.925-2.155 0-3.908-1.76-3.908-3.924v-.896h7.817v.896zm7.163-12.816c0-6.13-4.967-11.116-11.072-11.116-6.104 0-11.07 4.986-11.07 11.116 0 3.758 1.91 7.271 5.027 9.314v3.503c0 3.345 2.71 6.067 6.043 6.067s6.043-2.722 6.043-6.067v-3.503c3.118-2.043 5.03-5.555 5.03-9.314z" transform="translate(8.571 1.429)"/>
        <path fill="#313131" fill-rule="nonzero" d="M11.785 6.786c6.303 0 11.43 5.147 11.43 11.473 0 3.781-1.876 7.334-4.973 9.466l-.057.039v3.312c0 3.415-2.668 6.217-6.024 6.413l-.187.008-.189.003c-3.467 0-6.297-2.78-6.397-6.235l-.003-.19v-3.311l-.057-.039C2.378 25.693.536 22.371.37 18.791l-.01-.269-.003-.263c0-6.326 5.126-11.473 11.428-11.473zm0 .714C5.88 7.5 1.071 12.327 1.071 18.259c0 3.628 1.843 7.033 4.867 9.015.084.055.14.143.156.24l.005.06v3.502c0 3.148 2.552 5.71 5.686 5.71 3.076 0 5.59-2.466 5.684-5.533l.002-.177v-3.503c0-.12.061-.233.162-.299 3.025-1.982 4.867-5.387 4.867-9.015C22.5 12.326 17.693 7.5 11.785 7.5zm3.91 22.323c.175 0 .32.126.35.292l.007.065v.896c0 2.36-1.913 4.281-4.267 4.281-2.299 0-4.178-1.834-4.262-4.121l-.003-.16v-.896c0-.176.126-.321.293-.352l.064-.005h7.817zm-.358.713H8.234v.54c0 1.915 1.511 3.483 3.398 3.564l.153.003c1.907 0 3.468-1.517 3.55-3.413l.002-.154v-.54zm-3.55-21.608c5.124 0 9.293 4.186 9.293 9.33 0 3.333-1.79 6.434-4.671 8.096-.197.114-.326.313-.352.536l-.005.085v1.062c0 .175-.127.321-.293.352l-.065.005h-2.842c-.175 0-.32-.126-.351-.293l-.006-.064v-5.54c0-.155.1-.292.246-.34 1.268-.414 2.145-1.605 2.145-2.962 0-.394-.318-.713-.71-.713-.392 0-.71.318-.71.713 0 .93-.753 1.686-1.68 1.686-.927 0-1.68-.756-1.68-1.686 0-.394-.319-.713-.71-.713-.393 0-.71.318-.71.713 0 1.357.876 2.548 2.143 2.962.126.041.217.148.24.275l.006.065v5.54c0 .175-.126.321-.292.352l-.065.005H7.877c-.175 0-.321-.126-.351-.293l-.006-.064v-1.062c0-.257-.136-.493-.357-.62-2.882-1.663-4.671-4.764-4.671-8.096 0-5.145 4.169-9.33 9.294-9.33zm0 .715c-4.731 0-8.58 3.865-8.58 8.616 0 3.077 1.652 5.942 4.313 7.476.408.236.671.656.71 1.122l.004.118v.705h2.127v-4.935l-.059-.023c-1.343-.57-2.263-1.872-2.327-3.36l-.004-.167c0-.789.637-1.428 1.424-1.428.751 0 1.367.583 1.421 1.321l.004.107c0 .536.434.971.965.971.502 0 .916-.385.963-.878l.004-.093c0-.789.637-1.428 1.424-1.428.787 0 1.424.64 1.424 1.428 0 1.557-.939 2.936-2.331 3.527l-.06.023v4.935h2.128v-.705c0-.473.232-.912.616-1.177l.099-.063c2.66-1.534 4.313-4.4 4.313-7.476 0-4.75-3.85-8.616-8.579-8.616z" transform="translate(8.571 1.429)"/>
        <path fill="#EB2629" d="M4.555 3.204c-.383.435-.354 1.11.065 1.506l1.517 1.439c.419.398 1.068.367 1.451-.068s.354-1.109-.065-1.506L6.006 3.136c-.419-.397-1.068-.366-1.451.068M16.718 3.191l-1.439 1.517c-.397.419-.367 1.069.068 1.452.435.382 1.11.353 1.506-.066l1.44-1.516c.396-.42.366-1.069-.068-1.452-.435-.382-1.11-.354-1.507.065M11.677.001c-.556.025-.987.51-.962 1.082l.128 2.928c.025.572.496 1.014 1.052.988.556-.025.986-.51.961-1.082L12.728.99c-.025-.572-.496-1.014-1.051-.988" transform="translate(8.571 1.429)"/>
    </g>
</svg>
