<?xml version="1.0" encoding="UTF-8"?>
<svg width="35px" height="35px" viewBox="0 0 35 35" version="1.1" xmlns="http://www.w3.org/2000/svg" xmlns:xlink="http://www.w3.org/1999/xlink">
    <!-- Generator: Sketch 63 (92445) - https://sketch.com -->
    <title>live-no-worries</title>
    <desc>Created with Sketch.</desc>
    <g id="Page-1" stroke="none" stroke-width="1" fill="none" fill-rule="evenodd">
        <g id="brand/iconography/content/56/Live-No-Worries" transform="translate(-2.000000, -2.000000)">
            <g id="Group-9" transform="translate(2.857143, 2.857143)">
                <path d="M26.8721429,26.8726429 C24.1264286,29.6305 20.8114286,31.0097857 16.9242857,31.0097857 C13.0385714,31.0097857 9.72214286,29.6305 6.97642857,26.8726429 C4.23142857,24.1397857 2.85857143,20.8233571 2.85857143,16.9240714 C2.85857143,13.0505 4.23142857,9.73478571 6.97642857,6.97692857 C9.72214286,4.23121429 13.0385714,2.85835714 16.9242857,2.85835714 C20.8114286,2.85835714 24.1264286,4.23121429 26.8721429,6.97692857 C29.63,9.73478571 31.0092857,13.0505 31.0092857,16.9240714 C31.0092857,20.8233571 29.63,24.1397857 26.8721429,26.8726429 M28.8842857,4.96478571 C25.5871429,1.65478571 21.6007143,-0.000214285714 16.9242857,-0.000214285714 C12.2478571,-0.000214285714 8.25571429,1.65478571 4.94571429,4.96478571 C1.64857143,8.26192857 0,12.2483571 0,16.9240714 C0,21.6005 1.64857143,25.5933571 4.94571429,28.9033571 C8.25571429,32.2005 12.2478571,33.8490714 16.9242857,33.8490714 C21.6007143,33.8490714 25.5871429,32.2005 28.8842857,28.9033571 C32.1942857,25.5933571 33.8492857,21.6005 33.8492857,16.9240714 C33.8492857,12.2483571 32.1942857,8.26192857 28.8842857,4.96478571" id="Fill-1" fill="#313131"></path>
                <path d="M24.6347143,19.2565 C24.9482857,19.2565 25.2111429,19.3629286 25.4247143,19.5765 C25.6497143,19.7893571 25.7632857,20.0593571 25.7632857,20.3850714 C25.7504286,22.9922143 24.9168571,25.0043571 23.2618571,26.4215 C21.7568571,27.7500714 19.6825714,28.4143571 17.0375714,28.4143571 C14.2668571,28.4143571 12.1418571,27.7686429 10.6625714,26.4779286 L10.6625714,26.4779286 L10.644,26.4586429 C9.00114286,25.0922143 8.174,23.0672143 8.16114286,20.3850714 C8.16114286,20.0593571 8.26828571,19.7893571 8.48114286,19.5765 C8.70685714,19.3629286 8.96971429,19.2565 9.27114286,19.2565 L9.27114286,19.2565 Z M23.4497143,21.4750714 L10.474,21.4750714 C10.6625714,22.8665 11.2018571,23.9636429 12.0918571,24.7657857 C13.2575714,25.7186429 14.9054286,26.1950714 17.0375714,26.1950714 C19.0432857,26.1950714 20.629,25.7065 21.7947143,24.7286429 L21.7947143,24.7286429 L21.7947143,24.7472143 C22.7097143,23.9322143 23.2618571,22.8415 23.4497143,21.4750714 L23.4497143,21.4750714 Z M9.75021429,12.4537143 C10.5837857,12.4537143 11.2587857,13.1294286 11.2587857,13.963 C11.2587857,14.7958571 10.5837857,15.4722857 9.75021429,15.4722857 C8.91735714,15.4722857 8.24164286,14.7958571 8.24164286,13.963 C8.24164286,13.1294286 8.91735714,12.4537143 9.75021429,12.4537143 Z M24.061,12.4537143 C24.8945714,12.4537143 25.5695714,13.1294286 25.5695714,13.963 C25.5695714,14.7958571 24.8945714,15.4722857 24.061,15.4722857 C23.2274286,15.4722857 22.5524286,14.7958571 22.5524286,13.963 C22.5524286,13.1294286 23.2274286,12.4537143 24.061,12.4537143 Z" id="Combined-Shape" fill="#EB2629"></path>
            </g>
        </g>
    </g>
</svg>