<svg xmlns="http://www.w3.org/2000/svg" xmlns:xlink="http://www.w3.org/1999/xlink" width="21" height="19" viewBox="0 0 21 19">
    <defs>
        <path id="prefix__a" d="M0 0.109L19.624 0.109 19.624 13.758 0 13.758z"/>
    </defs>
    <g fill="none" fill-rule="evenodd">
        <path fill="#313131" d="M9.988 12.368H7.436c-.217-.01-.437.088-.601.25-.166.163-.26.384-.26.605 0 .221.094.44.259.603.162.16.38.252.597.252H10.417l-.429-1.71z" transform="translate(.143 -.143)"/>
        <g transform="translate(.143 -.143) translate(0 .32)">
            <mask id="prefix__b" fill="#fff">
                <use xlink:href="#prefix__a"/>
            </mask>
            <path fill="#313131" d="M1.921 1.818h15.782c.124 0 .21.087.21.211v1.71H1.71v-1.71c0-.124.087-.21.211-.21zm17.703.211c0-1.06-.862-1.92-1.921-1.92H1.92C.861.109 0 .969 0 2.029v9.808c0 1.06.862 1.92 1.921 1.92H4.05c.218 0 .435-.09.597-.25.165-.163.26-.383.26-.604 0-.221-.095-.442-.26-.605-.165-.162-.385-.26-.602-.25H1.921c-.124 0-.211-.087-.211-.211V5.449h16.204v5.385l1.71 1.286V2.03z" mask="url(#prefix__b)"/>
        </g>
        <path fill="#313131" d="M10.255 8.967H3.898c-.473 0-.857-.384-.857-.857s.384-.857.857-.857h6.357c.473 0 .857.384.857.857s-.384.857-.857.857" transform="translate(.143 -.143)"/>
        <path fill="#EB2629" d="M16.775 13.521c-.089.177-.033.344.002.44.018.033.418.825-.315 1.558-.782.782-2.62.701-2.85.688-.205 0-.38.096-.448.234l-.548.899h-1.279l1.545-1.368c.102-.079.412-.318.337-.607-.066-.258-.375-.317-.4-.317-.592-.197-1.106-.52-1.572-.986-1.516-1.517-1.141-2.615-.88-3.345l4.201 3.38 1.99-2.22c.157-.19.38-.296.63-.296.39 0 .735.285.805.666.03.158.136.282.312.37l.129.038c-.319.21-.786.461-1.343.6-.153.039-.281.154-.316.266zm3.247-1.235c-.042-.165-.19-.314-.355-.355l-.774-.193c-.286-.685-.948-1.137-1.683-1.137-.54 0-1.044.237-1.374.644l-1.302 1.442-4.073-3.143c-.097-.116-.26-.162-.426-.122-.138.035-.257.133-.313.257-.12.156-.492.695-.606 1.51-.12.841.032 2.142 1.43 3.552.393.391.811.701 1.249.924l-2.034 1.87c-.118.158-.143.354-.071.496.073.184.234.29.442.29h2.759c.196 0 .354-.092.425-.236l.546-.895c.672.014 2.364-.057 3.3-.993.776-.775.783-1.634.676-2.175 1.089-.394 1.843-1.049 2.048-1.277.144-.111.172-.313.136-.459z" transform="translate(.143 -.143)"/>
    </g>
</svg>
