<svg xmlns="http://www.w3.org/2000/svg" xmlns:xlink="http://www.w3.org/1999/xlink" width="21" height="20" viewBox="0 0 21 20">
    <defs>
        <path id="prefix__a" d="M0 0.237L19.906 0.237 19.906 20.143 0 20.143z"/>
    </defs>
    <g fill="none" fill-rule="evenodd">
        <g transform="translate(.714 -.286) translate(0 .191)">
            <mask id="prefix__b" fill="#fff">
                <use xlink:href="#prefix__a"/>
            </mask>
            <path fill="#313131" d="M14.205 7.43c-.193.196-.258.48-.167.742l2.54 7.292-1.17 1.171-3.479-6.012c-.201-.343-.644-.458-.988-.256-.052.031-.101.07-.144.112l-4.308 4.307c-.146.148-.221.351-.207.558l.156 2.365-.527.526-1.324-2.39c-.067-.122-.166-.221-.286-.287l-2.393-1.326.526-.527 2.364.156c.208.015.412-.06.56-.208l4.306-4.307c.282-.28.282-.739 0-1.022-.044-.043-.092-.08-.145-.11L3.508 4.735l1.171-1.172 7.293 2.541c.26.09.545.027.743-.168l3.948-3.948c.41-.41 1.08-.411 1.492 0 .411.411.41 1.08 0 1.491l-3.95 3.95zm4.97-6.462c-.975-.975-2.56-.974-3.533 0L12.02 4.591 4.727 2.05c-.261-.09-.555-.022-.75.174L1.823 4.38c-.134.138-.206.32-.203.513.002.193.08.373.219.508.04.04.086.074.137.104l6.011 3.477-3.413 3.414-2.364-.157c-.218-.013-.418.064-.564.214L.209 13.889c-.136.138-.21.32-.21.513.002.192.078.373.216.508.047.047.102.087.16.12l3.047 1.692 1.691 3.046c.132.24.38.375.635.375.117 0 .235-.028.344-.088.06-.032.114-.072.162-.12L7.69 18.5c.151-.149.23-.355.215-.566l-.156-2.364 3.412-3.413 3.479 6.013c.098.166.254.284.441.332.186.048.381.02.549-.078.05-.03.094-.064.137-.105l2.152-2.152c.197-.194.266-.489.175-.75l-2.54-7.293 3.622-3.623c.975-.973.975-2.56 0-3.533z" mask="url(#prefix__b)"/>
        </g>
        <path fill="#EB2629" d="M1.929 17.318c-.5 0-.906.405-.906.905s.405.906.906.906c.5 0 .905-.406.905-.906s-.405-.905-.905-.905" transform="translate(.714 -.286)"/>
    </g>
</svg>
