<svg xmlns="http://www.w3.org/2000/svg" width="40" height="40" viewBox="0 0 40 40">
    <g fill="none" fill-rule="evenodd">
        <circle cx="20" cy="20" r="19" stroke="#C2C9D1" stroke-width="2"/>
        <rect width="2" height="24" x="19" y="8" fill="#C2C9D1" rx="1"/>
        <rect width="2" height="24" x="19" y="8" fill="#C2C9D1" rx="1" transform="rotate(90 20 20)"/>
    </g>
</svg>
