<svg xmlns="http://www.w3.org/2000/svg" width="24" height="24" viewBox="0 0 24 24">
    <g fill="none" fill-rule="evenodd">
        <path fill="#313131" d="M3.857 4.286V6H1.714v8.143h2.571v-1.714c0-.71.576-1.286 1.286-1.286h10.286c.71 0 1.286.575 1.286 1.286l-.001 1.714h2.572V6h-2.143V4.286h2.143c.897 0 1.633.689 1.708 1.566L21.43 6v8.143c0 .897-.69 1.633-1.567 1.708l-.148.006h-2.572v2.572c0 .71-.575 1.285-1.285 1.285H5.571c-.71 0-1.285-.575-1.285-1.285l-.001-2.572h-2.57c-.898 0-1.634-.689-1.709-1.566L0 14.143V6c0-.897.689-1.633 1.566-1.708l.148-.006h2.143zm11.572 8.571H6l-.001 1.286H6v1.714h-.001L6 18h9.429v-5.143zm-1.435 3c.319 0 .577.288.577.643 0 .355-.258.643-.577.643h-.56c-.318 0-.577-.288-.577-.643 0-.355.259-.643.578-.643zm-2.653 0c.364 0 .659.288.659.643 0 .355-.295.643-.66.643H7.517c-.364 0-.659-.288-.659-.643 0-.355.295-.643.66-.643zm2.57-2.143c.364 0 .66.288.66.643 0 .355-.296.643-.66.643H7.517c-.365 0-.66-.288-.66-.643 0-.355.295-.643.66-.643z" transform="translate(1.286 2.143)"/>
        <path fill="#EB2629" d="M15.158 9.214c.386 0 .7.288.7.643 0 .355-.314.643-.7.643h-2.03c-.386 0-.7-.288-.7-.643 0-.355.314-.643.7-.643zm1.77 0c.17 0 .335.069.455.188.12.12.188.286.188.455 0 .17-.068.335-.188.455s-.285.188-.454.188c-.17 0-.336-.069-.455-.188-.12-.12-.188-.286-.188-.455 0-.169.068-.335.188-.455.12-.119.285-.188.455-.188zM15.515 0c1.095 0 2.006.832 2.055 1.9l.002.092v4.866l.087.006c.434.053.77.413.77.85 0 .452-.36.822-.815.855l-.066.002H3.882c-.487 0-.882-.383-.882-.857 0-.452.36-.822.816-.855l.041-.001V1.992c0-1.08.88-1.943 1.964-1.99L5.914 0h9.6zm0 1.714h-9.6c-.183 0-.318.114-.34.242l-.003.036v4.865h10.286V1.992c0-.13-.12-.255-.294-.275l-.049-.003z" transform="translate(1.286 2.143)"/>
    </g>
</svg>
