<svg xmlns="http://www.w3.org/2000/svg" xmlns:xlink="http://www.w3.org/1999/xlink" width="24" height="24" viewBox="0 0 24 24">
    <defs>
        <path id="prefix__a" d="M0 0.363L20.963 0.363 20.963 23.909 0 23.909z"/>
        <path id="prefix__c" d="M0.216 0.208L7.94 0.208 7.94 7.7 0.216 7.7z"/>
    </defs>
    <g fill="none" fill-rule="evenodd">
        <path fill="#EB2629" d="M11.42 17.77c.157-.15.29-.326.392-.52-.103.194-.235.37-.392.52zm-.854.482l-.174.047.174-.047c.218-.059.42-.153.6-.276-.18.123-.382.217-.6.276zm-.494.644c.176 0 .32-.148.32-.331 0 .183-.144.33-.32.33zm-.321-.331c0 .175.133.315.3.327-.167-.012-.3-.152-.3-.327zm-.174-.313c-.219-.059-.42-.153-.6-.276.18.123.381.217.6.276l.174.047-.174-.047zm-.938-2.203c.059.06.095.143.095.234 0 .476.234.896.59 1.145-.356-.249-.59-.67-.59-1.145 0-.091-.036-.174-.095-.234-.058-.06-.138-.097-.226-.097.088 0 .168.037.226.097zm1.433 1.615c-.185 0-.361-.039-.52-.109.159.07.335.109.52.109zm.945-2.356c.182.187.311.428.365.697-.054-.27-.183-.51-.365-.697zm-.82-5.035c-.04-.017-.081-.026-.125-.026.044 0 .086.01.124.026zm.369.618c.218.059.42.153.6.276-.18-.123-.382-.217-.6-.276l-.174-.047.174.047zm1.246 1c-.103-.192-.235-.368-.392-.518.157.15.29.326.392.519zm-.993-.175c-.213-.15-.47-.237-.747-.237s-.534.088-.748.237c-.356.248-.59.668-.59 1.144 0 .476.234.896.59 1.145-.356-.25-.59-.67-.59-1.145 0-.476.234-.896.59-1.144.214-.15.47-.237.748-.237.276 0 .534.088.747.237.214.149.384.36.485.607-.101-.248-.271-.458-.485-.607zm-.747 2.525c.409 0 .79.129 1.106.349.21.147.392.335.535.552-.143-.217-.325-.405-.535-.552-.316-.22-.697-.35-1.106-.35-.185 0-.361-.038-.52-.108.159.07.335.109.52.109zm0-.39c-.53 0-.96-.445-.96-.99 0-.547.43-.992.96-.992s.96.445.96.991c0 .397.313.72.698.72.385 0 .699-.323.699-.72 0-1.064-.677-2-1.66-2.314-.016-.383-.323-.689-.697-.689-.375 0-.682.306-.698.689-.983.314-1.66 1.25-1.66 2.314 0 1.341 1.058 2.432 2.358 2.432.53 0 .96.445.96.991s-.43.99-.96.99-.96-.444-.96-.99c0-.397-.314-.72-.7-.72-.384 0-.698.323-.698.72 0 1.064.677 2 1.66 2.315.016.382.323.688.698.688.374 0 .68-.306.697-.688.983-.315 1.66-1.25 1.66-2.315 0-1.34-1.058-2.432-2.357-2.432z"/>
        <mask id="prefix__b" fill="#fff">
            <use xlink:href="#prefix__a"/>
        </mask>
        <path fill="#313131" d="M9.23 7.629h2.502l4.643 3.104c1.696 1.134 2.709 3.024 2.709 5.056 0 3.051-2.283 5.647-5.31 6.039-2.187.283-4.403.283-6.585 0-3.027-.392-5.31-2.988-5.31-6.039 0-2.032 1.013-3.923 2.709-5.056L9.23 7.629zm2.434-1.87H9.3c-1.01-.935-1.67-2.175-1.877-3.527h6.119c-.208 1.352-.867 2.592-1.877 3.528zm5.76 3.422L14.96 7.535c.313-.151.53-.471.53-.84 0-.516-.422-.935-.94-.935h-.43c.887-1.308 1.37-2.871 1.37-4.462 0-.515-.422-.935-.94-.935h-8.14c-.518 0-.94.42-.94.94 0 1.586.484 3.15 1.371 4.457h-.43c-.519 0-.94.42-.94.934 0 .37.216.69.53.841L3.539 9.181C1.323 10.663 0 13.134 0 15.79c0 1.93.704 3.794 1.98 5.247 1.28 1.457 3.044 2.396 4.967 2.645 1.166.151 2.356.228 3.535.228 1.18 0 2.37-.077 3.535-.228 1.924-.249 3.687-1.188 4.967-2.645 1.277-1.453 1.98-3.317 1.98-5.247 0-2.655-1.323-5.125-3.54-6.608z" mask="url(#prefix__b)"/>
        <g transform="translate(15.857)">
            <mask id="prefix__d" fill="#fff">
                <use xlink:href="#prefix__c"/>
            </mask>
            <path fill="#EB2629" d="M7.462 3.478L6.02 4.905l1.443-1.427c.032-.032.056-.071.073-.111-.017.04-.04.079-.073.111zM6.324 7.135c.017-.033.028-.068.034-.105-.006.037-.017.072-.034.105zM4.078 6.32l-1.796.955 1.796-.955 1.796.955-1.796-.955zm-1.993.992c.02.003.039 0 .058-.002-.006 0-.011.005-.017.005-.014 0-.027-.001-.04-.003zm-.232-.142c.048.07.123.122.213.139-.09-.017-.165-.069-.213-.14zm3.735-.813l-.26-1.51.26 1.51zm-1.354-.713l.464.244-.464-.244c-.01-.005-.021-.003-.031-.008.01.005.02.003.03.008zm-1.666.713l.26-1.51-.26 1.51zM5.16 4.272c-.17.162-.249.403-.209.64l.128.743-.67-.353c-.1-.054-.216-.082-.332-.082-.116 0-.231.028-.334.083l-.668.352.127-.742c.04-.238-.039-.48-.212-.645l-.532-.525.745-.109c.227-.033.427-.176.533-.382l.341-.695.338.689c.11.212.309.355.537.388l.744.109-.536.529zm-3.522-.8l1.51-.22-1.51.22 1.09 1.076-1.09-1.075zM7.94 3.24c0-.193-.076-.374-.212-.51-.105-.105-.238-.174-.385-.198L5.53 2.265 4.72.616C4.61.371 4.354.208 4.077.208h-.02c-.273.009-.512.17-.626.417l-.805 1.64L.82 2.53c-.197.033-.362.136-.473.294-.11.156-.154.347-.123.537.025.148.093.283.199.389l1.303 1.29-.304 1.814c-.034.183.006.375.114.534.109.158.272.265.46.3l.041.007c.03.003.059.005.088.005.116 0 .232-.03.335-.084l1.617-.86 1.618.86c.103.055.218.084.333.084.266 0 .508-.147.632-.384.074-.142.1-.308.07-.467L6.43 5.04l1.3-1.285c.138-.14.212-.322.211-.515z" mask="url(#prefix__d)"/>
        </g>
    </g>
</svg>
