<svg xmlns="http://www.w3.org/2000/svg" width="24" height="24" viewBox="0 0 24 24">
    <g fill="none" fill-rule="evenodd">
        <path fill="#EB2629" d="M17.244 5.357l1.412-1.413c.359-.358.359-.942 0-1.3-.358-.359-.941-.359-1.3 0l-1.413 1.412c-.359.36-.359.942 0 1.301s.942.359 1.3 0M13.207 3.698c.494.157.987-.135 1.144-.606l.583-1.906C15.09.693 14.8.2 14.329.043c-.494-.157-.987.135-1.144.605l-.583 1.906c-.112.336 0 .696.224.92.09.112.225.18.381.224M21.257 6.972c-.157-.494-.65-.763-1.143-.606l-1.906.583c-.494.157-.763.65-.605 1.144.044.157.134.269.224.38.224.225.582.337.919.225l1.906-.583c.493-.134.762-.65.605-1.143M4.058 15.941l-1.412 1.413c-.359.359-.359.942 0 1.3.359.359.941.359 1.3 0l1.413-1.412c.359-.359.359-.942 0-1.301s-.941-.359-1.3 0M8.095 17.6c-.494-.156-.987.135-1.144.606l-.583 1.906c-.112.336 0 .695.225.92.111.111.224.179.38.223.494.158.988-.134 1.144-.605l.583-1.906c.157-.493-.112-1.009-.605-1.144M3.7 13.205c-.157-.493-.65-.762-1.144-.605l-1.906.583c-.493.157-.762.65-.605 1.144.044.156.134.269.224.38.224.225.583.337.92.225l1.905-.583c.493-.157.763-.673.606-1.144" transform="translate(1.286 1.286)"/>
        <path fill="#313131" d="M7.086 12.465c.358-.358.358-.941 0-1.3l-1.39-1.39c-1.121-1.122-1.121-2.96 0-4.082 1.12-1.12 2.96-1.12 4.08 0l1.39 1.39c.36.36.943.36 1.302 0 .358-.358.358-.94 0-1.3l-1.391-1.39c-1.839-1.839-4.843-1.839-6.682 0-1.839 1.839-1.839 4.843 0 6.682l1.39 1.39c.359.359.942.359 1.3 0M15.517 8.833c-.359-.359-.942-.359-1.3 0-.36.358-.36.942 0 1.3l1.39 1.39c1.12 1.122 1.12 2.96 0 4.082-1.121 1.12-2.96 1.12-4.081 0l-1.39-1.39c-.36-.36-.943-.36-1.301 0-.36.358-.36.941 0 1.3l1.39 1.39c1.838 1.839 4.844 1.839 6.682 0 1.839-1.839 1.839-4.843 0-6.682l-1.39-1.39z" transform="translate(1.286 1.286)"/>
        <path fill="#313131" d="M7.176 7.173c-.36.36-.36.942 0 1.301l5.673 5.673c.358.359.942.359 1.3 0 .359-.359.359-.941 0-1.3L8.476 7.172c-.359-.358-.942-.358-1.3 0" transform="translate(1.286 1.286)"/>
    </g>
</svg>
