<svg xmlns="http://www.w3.org/2000/svg" width="40" height="40" viewBox="0 0 40 40">
    <g fill="none" fill-rule="evenodd">
        <path fill="#313131" d="M15.714 2.494c-1.378 0-2.5 1.121-2.5 2.5 0 1.378 1.122 2.5 2.5 2.5 1.379 0 2.5-1.122 2.5-2.5 0-1.379-1.121-2.5-2.5-2.5m0 7.136c-1.959 0-3.715-1.241-4.369-3.09l-.169-.475H1.43c-.591 0-1.072-.48-1.072-1.071s.48-1.072 1.072-1.072h9.747l.169-.475c.47-1.325 1.497-2.353 2.821-2.822.502-.177 1.023-.268 1.548-.268 1.96 0 3.715 1.242 4.37 3.09l.169.475H30c.59 0 1.071.481 1.071 1.072 0 .59-.48 1.071-1.071 1.071h-9.747l-.169.476c-.469 1.325-1.498 2.353-2.822 2.821-.501.177-1.022.268-1.548.268" transform="translate(4.286 4.286)"/>
        <path fill="#313131" fill-rule="nonzero" d="M15.714 0c2.047 0 3.887 1.257 4.64 3.148l.067.18.084.237H30c.715 0 1.308.527 1.412 1.213l.013.11.004.106c0 .752-.584 1.37-1.323 1.424L30 6.422h-9.495l-.084.238c-.46 1.3-1.421 2.335-2.667 2.89l-.189.08-.184.069c-.54.191-1.102.288-1.667.288-2.046 0-3.886-1.257-4.638-3.148l-.068-.179-.084-.238H1.429C.714 6.422.12 5.895.016 5.21L.004 5.1 0 4.994c0-.752.584-1.37 1.322-1.425l.107-.004h9.495l.084-.238c.46-1.3 1.42-2.334 2.666-2.89l.19-.08.183-.069C14.588.098 15.15 0 15.714 0zm0 .714c-.483 0-.964.084-1.428.248-1.162.41-2.076 1.287-2.536 2.422l-.068.182-.253.713h-10c-.394 0-.715.321-.715.715 0 .365.277.668.631.71l.084.004h10l.253.714c.603 1.705 2.224 2.851 4.032 2.851.484 0 .964-.083 1.429-.247 1.162-.411 2.076-1.288 2.536-2.423l.069-.181.253-.714H30c.393 0 .714-.32.714-.714 0-.366-.276-.668-.63-.71L30 4.28H20l-.252-.713C19.143 1.86 17.522.714 15.714.714zm0 1.423c1.576 0 2.857 1.28 2.857 2.857 0 1.576-1.28 2.857-2.857 2.857-1.576 0-2.857-1.281-2.857-2.857 0-1.576 1.281-2.857 2.857-2.857zm0 .714c-1.181 0-2.143.961-2.143 2.143 0 1.181.962 2.143 2.143 2.143 1.182 0 2.143-.962 2.143-2.143 0-1.182-.961-2.143-2.143-2.143z" transform="translate(4.286 4.286)"/>
        <path fill="#313131" d="M15.714 23.922c-1.378 0-2.5 1.122-2.5 2.5 0 1.379 1.122 2.5 2.5 2.5 1.379 0 2.5-1.121 2.5-2.5 0-1.378-1.121-2.5-2.5-2.5m0 7.137c-1.959 0-3.715-1.242-4.369-3.09l-.169-.475H1.43c-.591 0-1.072-.481-1.072-1.072 0-.59.48-1.071 1.072-1.071h9.747l.169-.476c.47-1.325 1.497-2.353 2.821-2.821.502-.177 1.023-.268 1.548-.268 1.96 0 3.715 1.241 4.37 3.09l.169.475H30c.59 0 1.071.48 1.071 1.071s-.48 1.072-1.071 1.072h-9.747l-.169.475c-.469 1.325-1.498 2.353-2.822 2.822-.501.177-1.022.268-1.548.268" transform="translate(4.286 4.286)"/>
        <path fill="#313131" fill-rule="nonzero" d="M15.714 21.429c2.047 0 3.887 1.257 4.64 3.148l.067.179.084.238H30c.715 0 1.308.527 1.412 1.212l.013.11.004.106c0 .752-.584 1.37-1.323 1.425L30 27.85h-9.495l-.084.238c-.46 1.299-1.421 2.334-2.667 2.89l-.189.08-.184.069c-.54.19-1.102.288-1.667.288-2.046 0-3.886-1.257-4.638-3.148l-.068-.18-.084-.237H1.429c-.715 0-1.308-.527-1.413-1.213l-.012-.11L0 26.423c0-.752.584-1.37 1.322-1.424l.107-.004h9.495l.084-.238c.46-1.3 1.42-2.335 2.666-2.89l.19-.08.183-.069c.541-.191 1.102-.288 1.667-.288zm0 .714c-.483 0-.964.083-1.428.247-1.162.411-2.076 1.287-2.536 2.423l-.068.181-.253.714h-10c-.394 0-.715.32-.715.714 0 .366.277.668.631.71l.084.005h10l.253.713c.603 1.706 2.224 2.852 4.032 2.852.484 0 .964-.084 1.429-.248 1.162-.41 2.076-1.287 2.536-2.422l.069-.182.253-.713H30c.393 0 .714-.321.714-.715 0-.365-.276-.668-.63-.71L30 25.709H20l-.252-.714c-.605-1.705-2.226-2.851-4.034-2.851zm0 1.422c1.576 0 2.857 1.281 2.857 2.857 0 1.576-1.28 2.857-2.857 2.857-1.576 0-2.857-1.28-2.857-2.857 0-1.576 1.281-2.857 2.857-2.857zm0 .714c-1.181 0-2.143.962-2.143 2.143 0 1.182.962 2.143 2.143 2.143 1.182 0 2.143-.961 2.143-2.143 0-1.181-.961-2.143-2.143-2.143z" transform="translate(4.286 4.286)"/>
        <path fill="#313131" d="M1.429 16.78c-.591 0-1.072-.481-1.072-1.072 0-.59.48-1.071 1.072-1.071H20.67v2.142H1.43z" transform="translate(4.286 4.286)"/>
        <path fill="#313131" fill-rule="nonzero" d="M21.029 17.137v-2.858h-19.6C.64 14.28 0 14.92 0 15.708s.64 1.429 1.429 1.429h19.6zm-.715-2.143v1.428H1.43c-.394 0-.715-.32-.715-.714l.005-.083c.041-.355.344-.631.71-.631h18.885z" transform="translate(4.286 4.286)"/>
        <path fill="#313131" fill-rule="nonzero" d="M25.468 10.648c-2.761 0-5 2.238-5 5 0 2.76 2.239 4.999 5 4.999s5-2.239 5-5c0-2.76-2.239-4.999-5-4.999zm0 2.857c1.183 0 2.142.96 2.142 2.142 0 1.183-.959 2.142-2.142 2.142-1.183 0-2.142-.959-2.142-2.142 0-1.183.959-2.142 2.142-2.142z" transform="translate(4.286 4.286)"/>
    </g>
</svg>
