<?xml version="1.0" encoding="UTF-8"?>
<svg width="28px" height="28px" viewBox="0 0 28 28" version="1.1" xmlns="http://www.w3.org/2000/svg" xmlns:xlink="http://www.w3.org/1999/xlink">
    <title>typography</title>
    <g id="01.-Introduction" stroke="none" stroke-width="1" fill="none" fill-rule="evenodd">
        <g id="101-OCBC-Design-System-Introduction" transform="translate(-1062.000000, -1478.000000)">
            <g id="typography-pillars" transform="translate(1044.000000, 1452.000000)">
                <g id="typography" transform="translate(16.000000, 24.000000)">
                    <path d="M25.1428571,2.57142857 C27.4633813,2.57142857 29.3531529,4.41569966 29.4263694,6.7184394 L29.4285714,6.85714286 L29.4285714,25.1428571 C29.4285714,27.4633813 27.5843003,29.3531529 25.2815606,29.4263694 L25.1428571,29.4285714 L6.66666667,29.4285714 C5.87768845,29.4285714 5.23809524,28.7889782 5.23809524,28 C5.23809524,27.2425809 5.82754434,26.622835 6.5727377,26.5744672 L6.66666667,26.5714286 L25.1428571,26.5714286 C25.9002762,26.5714286 26.5200221,25.9819795 26.5683899,25.2367861 L26.5714286,25.1428571 L26.5714286,6.85714286 C26.5714286,6.09972377 25.9819795,5.4799779 25.2367861,5.4316101 L25.1428571,5.42857143 L6.85714286,5.42857143 C6.09972377,5.42857143 5.4799779,6.01802054 5.4316101,6.76321389 L5.42857143,6.85714286 L5.42857143,22.6666667 C5.42857143,23.4556449 4.78897821,24.0952381 4,24.0952381 C3.24258091,24.0952381 2.62283504,23.505789 2.57446725,22.7605956 L2.57142857,22.6666667 L2.57142857,6.85714286 C2.57142857,4.5366187 4.41569966,2.64684713 6.7184394,2.57363061 L6.85714286,2.57142857 L25.1428571,2.57142857 Z M18.2857143,8.57142857 L18.2857143,11.7550994 L16.1142783,11.7550994 L16.1142783,10.6938879 L13.9428423,10.6938879 L13.9428423,21.3061121 L16.1132013,21.3061121 L16.1132013,23.4285714 L9.60000743,23.4285714 L9.60000743,21.3061121 L11.7714434,21.3061121 L11.7714434,10.6938879 L9.60000743,10.6938879 L9.60000743,11.7550994 L7.42857143,11.7550994 L7.42857143,8.57142857 L18.2857143,8.57142857 Z" id="Combined-Shape" fill="#313131"></path>
                    <polygon id="Path" fill="#EB2629" points="16 13.7143226 16 16.9524056 18.1428663 16.9524056 18.1428663 15.8730569 19.2142811 15.8730569 19.2142811 21.2698372 18.1428663 21.2698372 18.1428663 23.4285714 22.4285623 23.4285714 22.4285623 21.2698372 21.3571474 21.2698372 21.3571474 15.87302 22.4285623 15.87302 22.4285623 16.9523686 24.5714286 16.9523686 24.5714286 13.7142857 16 13.7142857"></polygon>
                </g>
            </g>
        </g>
    </g>
</svg>