<svg xmlns="http://www.w3.org/2000/svg" width="40" height="40" viewBox="0 0 40 40">
    <g fill="none" fill-rule="evenodd">
        <path fill="#8B7866" d="M26.433 9.582l-8.24 8.24 3.567-8.24h4.673zM11.06 2.387L8.6 7.552H3.68l4.674-5.165h2.706zM8.538 9.582l3.567 8.24-8.24-8.24h4.673zm2.337-2.03l2.46-5.165h3.628l2.46 5.165h-8.548zm8.61 2.03L15.18 19.728 10.813 9.582h8.671zm7.134-2.03h-4.92l-2.46-5.165h2.706l4.674 5.165zm3.074.308L23.113.665c-.184-.184-.492-.308-.738-.308H7.8c-.246 0-.491.124-.676.308L.604 7.86c-.368.368-.307 1.046.062 1.414L14.442 23.05c.184.185.43.308.738.308.246 0 .553-.123.738-.308L29.693 9.274c.37-.368.37-.984 0-1.414z" transform="translate(3.571 4.286)"/>
        <path fill="#8B7866" fill-rule="nonzero" d="M22.375 0c.306 0 .654.13.91.34l.092.084 6.587 7.203c.46.536.486 1.304.06 1.813l-.079.087L16.171 23.3c-.248.25-.646.413-.991.413s-.652-.117-.9-.329l-.09-.083L.414 9.527c-.486-.485-.56-1.316-.151-1.821L6.871.412C7.1.185 7.39.036 7.688.006L7.8 0h14.575zm0 .714H7.8c-.113 0-.242.052-.35.136l-.062.055-6.53 7.208c-.195.194-.19.588.004.843l.057.066 13.776 13.775c.132.133.292.203.485.203.134 0 .31-.065.43-.156l.055-.047L29.44 9.02c.214-.212.231-.57.045-.847l-.056-.073L22.861.918C22.763.82 22.59.74 22.445.719l-.07-.005zm-2.89 8.51c.235 0 .4.223.346.443l-.018.054-4.304 10.147c-.114.269-.476.289-.626.059l-.031-.057-4.367-10.147c-.093-.217.047-.458.27-.494l.058-.004h8.671zm-.54.715h-7.59l3.822 8.88 3.767-8.88zm7.488-.714c.297 0 .456.335.293.563l-.04.047-8.24 8.24c-.263.263-.686 0-.6-.335l.02-.06 3.566-8.24c.049-.112.15-.19.268-.21l.06-.005h4.673zm-17.895 0c.122 0 .234.062.299.162l.029.053 3.567 8.24c.147.342-.253.638-.533.436l-.048-.041-8.24-8.24c-.21-.21-.086-.56.19-.605l.062-.005h4.674zm17.033.714h-3.577l-2.73 6.307 6.307-6.307zm-17.268 0H4.726l6.308 6.307-2.731-6.307zm2.757-7.91c.242 0 .408.234.343.456l-.02.056-2.461 5.165c-.051.106-.15.18-.265.198L8.6 7.91H3.68c-.288 0-.45-.32-.3-.549l.036-.048L8.09 2.147c.054-.06.126-.099.205-.112l.06-.005h2.706zm5.903 0c.118 0 .227.059.293.154l.03.05 2.46 5.165c.104.22-.035.47-.264.506l-.058.005h-8.55c-.241 0-.407-.233-.343-.455l.021-.056 2.46-5.165c.051-.106.15-.18.265-.198l.058-.005h3.628zm4.982 0c.08 0 .158.028.22.077l.045.041 4.673 5.165c.194.215.065.549-.205.592l-.06.005h-4.92c-.118 0-.227-.058-.293-.153l-.029-.05-2.46-5.165c-.104-.22.035-.47.264-.506l.058-.005h2.707zm-11.451.715H8.512l-4.028 4.45h3.89l2.12-4.45zm6.243 0H13.56l-2.12 4.45h7.417l-2.12-4.45zm5.049 0h-1.982l2.12 4.45h3.89l-4.028-4.45z" transform="translate(3.571 4.286)"/>
        <path fill="#313131" fill-rule="nonzero" d="M25.41 13.05c-4.085 0-7.396 3.31-7.396 7.395 0 4.085 3.311 7.396 7.396 7.396 4.084 0 7.396-3.311 7.396-7.396 0-4.084-3.311-7.395-7.396-7.395zm0 2.857c2.507 0 4.538 2.032 4.538 4.538 0 2.507-2.032 4.54-4.538 4.54-2.507 0-4.539-2.033-4.539-4.54 0-2.506 2.032-4.538 4.539-4.538z" transform="translate(3.571 4.286)"/>
        <path fill="#313131" fill-rule="nonzero" d="M28.03 24.146c.617-.427 1.45-.303 1.918.267l.07.093 4.108 5.929c.45.648.288 1.538-.36 1.988-.616.427-1.45.302-1.918-.267l-.07-.094-4.108-5.928c-.45-.649-.288-1.539.36-1.988z" transform="translate(3.571 4.286)"/>
    </g>
</svg>
