<svg xmlns="http://www.w3.org/2000/svg" width="40" height="40" viewBox="0 0 40 40">
    <g fill="none" fill-rule="evenodd">
        <path fill="#8B7866" d="M12.306 14.685l1.681-3.53h-1.674l-3.194 3.53h3.187zm7.975 0l-1.681-3.53h-2.504l-1.682 3.53h5.867zm5.294 0l-3.194-3.53h-1.674l1.681 3.53h3.187zm-5.401 7.118l5.234-5.233h-2.969l-2.265 5.233zm-5.653 0l-2.265-5.233h-2.97l5.235 5.233zm2.848 1.768l2.97-7.001h-5.983l3.013 7.001zm.002 3.364c-.26 0-.497-.098-.682-.284L6.323 16.285c-.363-.363-.385-.978-.046-1.317l4.899-5.407c.187-.187.418-.29.641-.29h10.968c.238 0 .512.114.681.284l4.957 5.42c.346.403.341.964-.005 1.31L18.052 26.651c-.17.17-.444.284-.681.284z" transform="translate(2.857 2.857)"/>
        <path fill="#8B7866" d="M9.718 16.748h2.42l1.848 4.267-4.268-4.267zm4.909 0h5.443l-2.702 6.37-2.741-6.37zm7.93 0h2.42l-4.267 4.267 1.846-4.267zm-10.165-5.414h1.312l-1.51 3.173H9.521l2.87-3.173zm3.816 0h2.278l1.512 3.173h-5.301l1.51-3.173zm4.782 0h1.312l2.87 3.173h-2.671l-1.511-3.173zm1.794-2.242H11.817c-.27 0-.548.123-.761.337l-4.918 5.427c-.393.392-.371 1.126.059 1.556l10.366 10.365c.22.22.498.337.808.337.281 0 .606-.136.807-.337l10.365-10.365c.408-.407.415-1.087.02-1.55l-4.96-5.422c-.215-.215-.532-.348-.819-.348zm-7.727 13.5l-2.684-6.201H8.856l6.201 6.2zm2.314 1.434l3.239-7.635h-6.525l3.286 7.635zm2.267-1.434l6.2-6.201h-3.516l-2.684 6.2zM8.717 14.864h3.701l1.852-3.887h-2.037l-3.516 3.887zm5.414 0h6.432l-1.85-3.887h-2.73l-1.852 3.887zm8.145 0h3.702l-3.517-3.887h-2.037l1.852 3.887zm.508-5.414c.186 0 .417.092.556.231l4.951 5.414c.278.325.278.787 0 1.065L17.926 26.525c-.139.139-.37.232-.555.232-.232 0-.417-.093-.555-.232L6.45 16.16c-.278-.278-.324-.788-.047-1.065l4.905-5.414c.139-.139.325-.231.509-.231h10.967z" transform="translate(2.857 2.857)"/>
        <path fill="#313131" fill-rule="nonzero" d="M17.063 0C7.64 0 0 7.64 0 17.063c0 9.425 7.64 17.064 17.063 17.064 9.424 0 17.064-7.64 17.064-17.064S26.487 0 17.063 0zm0 2.857c7.846 0 14.207 6.36 14.207 14.206 0 7.846-6.36 14.207-14.207 14.207-7.846 0-14.205-6.36-14.205-14.207 0-7.846 6.36-14.206 14.205-14.206z" transform="translate(2.857 2.857)"/>
    </g>
</svg>
