<svg xmlns="http://www.w3.org/2000/svg" xmlns:xlink="http://www.w3.org/1999/xlink" width="20" height="15" viewBox="0 0 20 15">
    <defs>
        <path id="prefix__a" d="M0 0.067L19.764 0.067 19.764 5.608 0 5.608z"/>
        <path id="prefix__c" d="M0.405 0.332L2.216 0.332 2.216 2.143 0.405 2.143z"/>
    </defs>
    <g fill="none" fill-rule="evenodd">
        <g transform="translate(.143 .143) translate(0 .361)">
            <mask id="prefix__b" fill="#fff">
                <use xlink:href="#prefix__a"/>
            </mask>
            <path fill="#313131" d="M19.48 4.032C16.776 1.426 13.568.129 9.653.067 9.548.076 9.206.1 9.204.1c-.39.026-.876.058-1.335.129C4.995.67 2.48 1.918.394 3.935c-.16.155-.291.36-.353.55-.027.085-.041.17-.041.252 0 .285.169.557.464.748.267.175.763.126 1.043-.106.116-.094.226-.195.353-.313.132-.12.264-.242.4-.356C4.286 3.02 6.61 2.087 9.167 1.938c2.93-.168 5.617.666 7.968 2.48.207.16.404.333.626.529.195.171.38.334.58.478.164.12.348.183.534.183.26 0 .506-.121.693-.34.127-.148.197-.347.197-.558 0-.258-.104-.505-.285-.678" mask="url(#prefix__b)"/>
        </g>
        <path fill="#313131" d="M14.096 5.645c-1.285-.828-2.814-1.223-4.516-1.182-.983.028-1.945.24-2.858.631-1.304.56-2.275 1.277-2.97 2.196-.11.146-.162.288-.162.447 0 .14.04.293.119.456.162.338.393.498.77.535.344.043.618-.09 1.029-.5 1.367-1.361 3.046-1.967 4.99-1.785 1.487.14 2.78.765 3.841 1.859.39.4.652.45.837.45h.004l.06-.001c.434-.032.695-.214.846-.592.061-.156.092-.302.092-.434 0-.147-.03-.372-.303-.628-.474-.448-1.106-1.018-1.779-1.452" transform="translate(.143 .143)"/>
        <path fill="#313131" d="M12.224 9.252c-.68-.438-1.476-.66-2.364-.66l-.141.002c-.546.015-1.08.132-1.587.35-.722.31-1.264.712-1.657 1.23-.101.135-.153.282-.153.439 0 .123.032.252.095.382.136.284.356.437.66.467.354.046.618-.156.816-.353.624-.622 1.395-.895 2.272-.812.676.063 1.264.347 1.747.846.223.228.438.334.676.334.01 0 .047 0 .057-.002.357-.025.603-.2.73-.52.047-.12.072-.237.072-.349 0-.216-.09-.409-.264-.573-.253-.238-.59-.542-.96-.78" transform="translate(.143 .143)"/>
        <g transform="translate(.143 .143) translate(8.571 11.933)">
            <mask id="prefix__d" fill="#fff">
                <use xlink:href="#prefix__c"/>
            </mask>
            <path fill="#EB2629" d="M1.31.332c-.5 0-.905.405-.905.905s.405.906.905.906.906-.406.906-.906S1.81.332 1.31.332" mask="url(#prefix__d)"/>
        </g>
    </g>
</svg>
