<?xml version="1.0" encoding="UTF-8"?>
<svg width="125px" height="112px" viewBox="0 0 125 112" version="1.1" xmlns="http://www.w3.org/2000/svg" xmlns:xlink="http://www.w3.org/1999/xlink">
    <!-- Generator: Sketch 59 (86127) - https://sketch.com -->
    <title>start-with-nyala</title>
    <desc>Created with Sketch.</desc>
    <defs>
        <linearGradient x1="13.3680661%" y1="16.0360504%" x2="87.6364012%" y2="81.3121115%" id="linearGradient-1">
            <stop stop-color="#F14545" offset="0%"></stop>
            <stop stop-color="#C41432" offset="100%"></stop>
        </linearGradient>
    </defs>
    <g id="Page-1" stroke="none" stroke-width="1" fill="none" fill-rule="evenodd">
        <g id="2nd-fold" transform="translate(-64.000000, -3.000000)">
            <g id="molecules/card/nyala">
                <g id="brand/logo/nyala/start-with-nyala" transform="translate(64.000000, 0.000000)">
                    <path d="M35.840101,20 C36.6715758,20 37.390911,19.8577441 37.9981065,19.5732323 C38.6053019,19.2887205 39.0702714,18.8947811 39.3930149,18.3914141 C39.7157585,17.8880471 39.8771302,17.3080808 39.8771302,16.6515152 C39.8771302,15.973064 39.7321692,15.4122475 39.442247,14.9690657 C39.1523248,14.5258838 38.7721439,14.1784512 38.3017042,13.9267677 C37.8312645,13.6750842 37.2404797,13.4398148 36.5293499,13.2209596 C35.8510414,13.0130471 35.3341048,12.8160774 34.9785399,12.6300505 C34.622975,12.4440236 34.3795498,12.2388468 34.2482643,12.0145202 C34.1169788,11.7901936 34.051336,11.5138889 34.051336,11.1856061 C34.051336,10.6603535 34.242794,10.2609428 34.6257101,9.98737374 C35.0086261,9.71380471 35.4954765,9.5770202 36.0862613,9.5770202 C36.556701,9.5770202 36.9970545,9.65635522 37.4073217,9.81502525 C37.8175889,9.97369529 38.2360614,10.2226431 38.6627393,10.5618687 L38.6627393,10.5618687 L39.5160951,9.60984848 C39.012834,9.16119529 38.4931622,8.83017677 37.9570797,8.61679293 C37.4209973,8.40340909 36.7755102,8.29671717 36.0206186,8.29671717 C35.3313697,8.29671717 34.7159689,8.42255892 34.1744162,8.67424242 C33.6328635,8.92592593 33.2116558,9.27609428 32.9107932,9.72474747 C32.6099306,10.1734007 32.4594993,10.6822391 32.4594993,11.2512626 C32.4594993,12.0938552 32.7275405,12.7613636 33.263623,13.2537879 C33.7997054,13.7462121 34.647591,14.1675084 35.8072796,14.5176768 C36.4637071,14.7146465 36.9642331,14.9116162 37.3088576,15.1085859 C37.653482,15.3055556 37.8969072,15.5271465 38.0391332,15.7733586 C38.1813591,16.0195707 38.2524721,16.3287037 38.2524721,16.7007576 C38.2524721,17.3573232 38.0227225,17.8579545 37.5632232,18.2026515 C37.103724,18.5473485 36.5238797,18.719697 35.8236903,18.719697 C35.243846,18.719697 34.718704,18.6239478 34.2482643,18.4324495 C33.7778245,18.2409512 33.312855,17.9591751 32.8533558,17.5871212 L32.8533558,17.5871212 L32,18.5391414 C32.9955817,19.5130471 34.2756154,20 35.840101,20 Z M44.5213549,20 C45.2434252,20 45.8889123,19.8030303 46.4578161,19.4090909 L46.4578161,19.4090909 L45.883442,18.4078283 C45.4567641,18.6376263 45.0738481,18.7525253 44.7346939,18.7525253 C44.3627183,18.7525253 44.0974122,18.6513047 43.9387755,18.4488636 C43.7801389,18.2464226 43.7008205,17.9208754 43.7008205,17.4722222 L43.7008205,17.4722222 L43.7008205,12.3181818 L45.5880497,12.3181818 L45.7521565,11.1527778 L43.7008205,11.1527778 L43.7008205,9.01893939 L42.1910372,9.19949495 L42.1910372,11.1527778 L40.6812539,11.1527778 L40.6812539,12.3181818 L42.1910372,12.3181818 L42.1910372,17.5378788 C42.1910372,18.3367003 42.3961708,18.9467593 42.806438,19.3680556 C43.2167052,19.7893519 43.7883442,20 44.5213549,20 Z M54.1051967,20 L54.4498212,18.9494949 C54.2091311,18.8619529 54.0286135,18.7333754 53.9082685,18.5637626 C53.7879234,18.3941498 53.7277509,18.1342593 53.7277509,17.7840909 L53.7277509,17.7840909 L53.7277509,13.8282828 C53.7277509,12.9090909 53.4761203,12.2005471 52.9728592,11.7026515 C52.4695981,11.2047559 51.7092363,10.9558081 50.6917736,10.9558081 C49.7727751,10.9558081 48.7771934,11.1527778 47.7050284,11.5467172 L47.7050284,11.5467172 L48.0824742,12.6464646 C49.0014728,12.3400673 49.7782453,12.1868687 50.4127919,12.1868687 C51.0254576,12.1868687 51.4794866,12.3181818 51.774879,12.5808081 C52.0702714,12.8434343 52.2179676,13.2811448 52.2179676,13.8939394 L52.2179676,13.8939394 L52.2179676,14.5340909 L50.8887019,14.5340909 C49.674311,14.5340909 48.7361666,14.780303 48.0742689,15.2727273 C47.4123711,15.7651515 47.0814223,16.4709596 47.0814223,17.3901515 C47.0814223,18.1670875 47.3275826,18.7962963 47.8199032,19.2777778 C48.3122239,19.7592593 48.9850621,20 49.8384178,20 C50.9762255,20 51.8350515,19.5677609 52.4148959,18.7032828 C52.5461814,19.1191077 52.7485798,19.4255051 53.0220913,19.6224747 C53.2956028,19.8194444 53.6566379,19.9452862 54.1051967,20 L54.1051967,20 Z M50.1830423,18.8674242 C49.6907216,18.8674242 49.3187461,18.7361111 49.0671155,18.4734848 C48.815485,18.2108586 48.6896697,17.8223906 48.6896697,17.3080808 C48.6896697,16.1262626 49.4883232,15.5353535 51.0856301,15.5353535 L51.0856301,15.5353535 L52.2179676,15.5353535 L52.2179676,17.5214646 C51.725647,18.418771 51.0473385,18.8674242 50.1830423,18.8674242 Z M58.3391542,19.8030303 L58.3391542,14.8623737 C58.525142,14.0307239 58.7822428,13.4179293 59.1104566,13.0239899 C59.4386703,12.6300505 59.8708184,12.4330808 60.4069009,12.4330808 C60.647591,12.4330808 60.8992215,12.4659091 61.1617926,12.5315657 L61.1617926,12.5315657 L61.4407742,11.0542929 C61.1782032,10.9886364 60.8937513,10.9558081 60.5874185,10.9558081 C60.0622765,10.9558081 59.6027772,11.1199495 59.2089207,11.4482323 C58.8150642,11.7765152 58.5032611,12.263468 58.2735115,12.9090909 L58.2735115,12.9090909 L58.1258153,11.1527778 L56.8293709,11.1527778 L56.8293709,19.8030303 L58.3391542,19.8030303 Z M65.5926783,20 C66.3147486,20 66.9602356,19.8030303 67.5291395,19.4090909 L67.5291395,19.4090909 L66.9547654,18.4078283 C66.5280875,18.6376263 66.1451715,18.7525253 65.8060173,18.7525253 C65.4340417,18.7525253 65.1687355,18.6513047 65.0100989,18.4488636 C64.8514622,18.2464226 64.7721439,17.9208754 64.7721439,17.4722222 L64.7721439,17.4722222 L64.7721439,12.3181818 L66.659373,12.3181818 L66.8234799,11.1527778 L64.7721439,11.1527778 L64.7721439,9.01893939 L63.2623606,9.19949495 L63.2623606,11.1527778 L61.7525773,11.1527778 L61.7525773,12.3181818 L63.2623606,12.3181818 L63.2623606,17.5378788 C63.2623606,18.3367003 63.4674942,18.9467593 63.8777614,19.3680556 C64.2880286,19.7893519 64.8596676,20 65.5926783,20 Z M71.2051336,20 C72.1569535,20 72.9638123,19.7756734 73.6257101,19.3270202 C74.2876078,18.878367 74.6185567,18.2272727 74.6185567,17.3737374 C74.6185567,16.6515152 74.3806017,16.0824916 73.9046918,15.6666667 C73.4287818,15.2508418 72.7094467,14.9225589 71.7466863,14.6818182 C71.0464969,14.4957912 70.5623817,14.3042929 70.2943404,14.1073232 C70.0262992,13.9103535 69.8922786,13.6367845 69.8922786,13.2866162 C69.8922786,12.9364478 70.0345045,12.6601431 70.3189564,12.457702 C70.6034084,12.2552609 70.9917947,12.1540404 71.4841153,12.1540404 C71.8779718,12.1540404 72.2526825,12.2142256 72.6082474,12.334596 C72.9638123,12.4549663 73.338523,12.6409933 73.7323795,12.8926768 L73.7323795,12.8926768 L74.3723964,11.9406566 C73.9457185,11.6123737 73.4971597,11.3661616 73.02672,11.2020202 C72.5562802,11.0378788 72.025668,10.9558081 71.4348832,10.9558081 C70.8440985,10.9558081 70.3107511,11.0570286 69.8348412,11.2594697 C69.3589312,11.4619108 68.9869556,11.7464226 68.7189144,12.1130051 C68.4508731,12.4795875 68.3168525,12.8872054 68.3168525,13.3358586 C68.3168525,13.959596 68.5219861,14.4739057 68.9322533,14.8787879 C69.3425205,15.28367 70.0071534,15.6064815 70.9261519,15.8472222 C71.4950558,16.0004209 71.9272039,16.1454125 72.2225963,16.282197 C72.5179886,16.4189815 72.7258574,16.5776515 72.8462024,16.7582071 C72.9665474,16.9387626 73.02672,17.1767677 73.02672,17.4722222 C73.02672,17.8771044 72.859878,18.1971801 72.526194,18.4324495 C72.19251,18.6677189 71.7412161,18.7853535 71.1723122,18.7853535 C70.2861351,18.7853535 69.4765411,18.5063131 68.7435304,17.9482323 L68.7435304,17.9482323 L67.9394067,18.8674242 C68.8037029,19.6224747 69.8922786,20 71.2051336,20 Z M83.8905954,19.8030303 L85.4496108,12.5151515 L86.9593941,19.8030303 L89.0107301,19.8030303 L90.9800126,11.1527778 L89.5358721,11.1527778 L87.960446,18.7525253 L86.3357879,11.1527778 L84.6454871,11.1527778 L82.9387755,18.7525253 L81.3797602,11.1527778 L79.8699769,11.1527778 L81.8884915,19.8030303 L83.8905954,19.8030303 Z M93.6057227,9.05176768 C93.922996,9.05176768 94.1800968,8.95601852 94.377025,8.7645202 C94.5739533,8.57302189 94.6724174,8.32954545 94.6724174,8.03409091 C94.6724174,7.73863636 94.5739533,7.49242424 94.377025,7.29545455 C94.1800968,7.09848485 93.922996,7 93.6057227,7 C93.2993899,7 93.0477593,7.09848485 92.8508311,7.29545455 C92.6539028,7.49242424 92.5554387,7.73863636 92.5554387,8.03409091 C92.5554387,8.32954545 92.6539028,8.57302189 92.8508311,8.7645202 C93.0477593,8.95601852 93.2993899,9.05176768 93.6057227,9.05176768 Z M94.377025,19.8030303 L94.377025,11.1527778 L92.8672417,11.1527778 L92.8672417,19.8030303 L94.377025,19.8030303 Z M99.9238376,20 C100.645908,20 101.291395,19.8030303 101.860299,19.4090909 L101.860299,19.4090909 L101.285925,18.4078283 C100.859247,18.6376263 100.476331,18.7525253 100.137177,18.7525253 C99.7652009,18.7525253 99.4998948,18.6513047 99.3412582,18.4488636 C99.1826215,18.2464226 99.1033032,17.9208754 99.1033032,17.4722222 L99.1033032,17.4722222 L99.1033032,12.3181818 L100.990532,12.3181818 L101.154639,11.1527778 L99.1033032,11.1527778 L99.1033032,9.01893939 L97.5935199,9.19949495 L97.5935199,11.1527778 L96.0837366,11.1527778 L96.0837366,12.3181818 L97.5935199,12.3181818 L97.5935199,17.5378788 C97.5935199,18.3367003 97.7986535,18.9467593 98.2089207,19.3680556 C98.6191879,19.7893519 99.1908268,20 99.9238376,20 Z M104.929097,19.8030303 L104.929097,13.6477273 C105.23543,13.1662458 105.563644,12.7941919 105.913739,12.5315657 C106.263833,12.2689394 106.66316,12.1376263 107.111719,12.1376263 C107.560278,12.1376263 107.902167,12.263468 108.137387,12.5151515 C108.372607,12.766835 108.490217,13.1990741 108.490217,13.8118687 L108.490217,13.8118687 L108.490217,19.8030303 L110,19.8030303 L110,13.5984848 C110,12.7777778 109.778456,12.1321549 109.335367,11.6616162 C108.892279,11.1910774 108.276878,10.9558081 107.489165,10.9558081 C106.460762,10.9558081 105.607406,11.4208754 104.929097,12.3510101 L104.929097,12.3510101 L104.929097,7.52525253 L103.419314,7.68939394 L103.419314,19.8030303 L104.929097,19.8030303 Z" id="Startswith" fill="#FFFFFF"></path>
                    <g id="brand/logo/nyala/general" transform="translate(0.000000, 42.000000)" fill="#FFFFFF">
                        <path d="M55.2886896,29.6611504 L55.6198352,29.6765488 C55.730296,29.68516 55.84084,29.69724 55.95148,29.71276 C57.51868,30.01076 58.31668,30.90876 58.34308,32.40876 C58.35068,32.85036 58.31028,33.25596 58.22708,33.62476 C57.53348,36.04996 56.72428,39.69036 55.79948,44.54476 C54.53908,51.23236 53.94828,56.80116 54.02708,61.25876 C54.09268,64.96476 54.55708,67.30396 55.95988,68.64716 C56.42628,69.09596 56.68708,69.49196 56.73988,69.83756 C56.74508,70.14596 56.58908,70.48316 56.27428,70.84956 C55.68948,71.57236 55.03108,72.02156 54.29948,72.19636 C54.1294229,72.22676 53.9628922,72.2472988 53.7998882,72.2581069 L53.5580269,72.2670376 C53.2390718,72.269258 52.9342229,72.2328171 52.64348,72.15876 C50.65908,71.71436 49.26468,70.77796 48.45828,69.35116 C47.65188,67.92276 47.48748,65.67476 47.42708,62.23396 C47.39428,60.42316 47.46508,57.91076 47.63828,54.69316 C47.60468,52.75196 47.54028,51.78956 47.44948,51.80556 C47.35748,51.82236 47.11028,52.15436 46.70828,52.80076 C45.18508,55.01996 43.39308,56.31076 41.33148,56.67716 C41.1172133,56.71516 40.9029467,56.7409378 40.6886059,56.7544637 L40.36703,56.76556 C40.04538,56.76746 39.72348,56.74176 39.40108,56.68836 C36.44988,56.10716 34.94788,54.33756 34.89628,51.38156 C34.69468,39.99756 35.68188,33.54476 37.78748,33.03716 L38.68148,32.86836 C38.97373,32.82756 39.24698,32.8093037 39.5014964,32.8132467 L39.6888753,32.8203609 C41.3437476,32.921753 42.148105,34.0306725 42.18388,36.04116 C42.06468,39.69116 41.98588,42.99636 42.01988,44.93676 C42.0602646,47.1863754 42.2493179,48.3231949 42.5902402,48.3493522 L42.63188,48.34716 L42.63188,48.34716 C43.22628,48.19756 44.51908,45.95276 46.51108,41.61596 C47.70708,39.05756 49.21308,35.97996 51.03468,32.38036 C51.83588,30.86636 52.92308,29.98596 54.29748,29.74156 C54.62748,29.68276 54.957768,29.656216 55.2886896,29.6611504 Z M38.8975472,-0.2929296 L39.1062011,-0.292091393 C40.6767804,-0.257491556 41.5780533,0.425066667 41.8102,1.75324 C41.8214,2.42244 41.6742,3.18644 41.373,4.04724 C40.211,7.79164 37.7202,16.17044 35.8062,23.71764 C31.425,40.79244 29.2862,52.34044 29.3906,58.35924 C29.4082,59.42884 30.791,63.41884 31.0842,64.57404 C31.0966,65.28644 30.7326,65.92284 29.9922,66.48324 C29.2526,67.04204 28.4082,67.40884 27.457,67.58164 C27.2164,67.6253309 26.9839372,67.6529929 26.7596187,67.6646249 L26.5380152,67.6709136 C25.224686,67.6765855 24.2046364,67.1051673 23.4794,65.95644 C18.6978,59.93884 14.2694,49.16564 12.6478,39.39884 C11.1366,30.77404 10.245,26.48644 9.9738,26.53564 C9.7922,26.56844 9.5314,27.24244 9.1906,28.55644 C8.2906,31.62724 7.3822,38.14164 6.4634,48.10364 C5.8982,54.82484 5.6446,59.81324 5.701,63.06724 C5.7238,64.40404 5.7866,65.45444 5.891,66.21804 C5.995,66.98164 6.3018,67.65324 6.8106,68.23204 C7.0422,68.45804 7.301,68.92444 7.5846,69.63444 C7.5906,69.99044 7.3614,70.43444 6.8922,70.96644 C6.4258,71.49804 5.897,71.86324 5.311,72.05964 L5.0398,72.10884 C4.88886667,72.13644 4.73522222,72.1543956 4.57894074,72.1628252 L4.34255,72.16834 C4.1042,72.16674 3.86,72.14384 3.6102,72.10004 C1.5598,71.75644 0.4082,70.82684 0.1558,69.30684 C0.1058,69.04804 0.063,67.86964 0.0266,65.77524 C-0.1758,54.05044 0.7766,42.20604 2.8862,30.23884 C3.8362,22.19604 6.8002,17.72004 11.7802,16.81524 C12.176325,16.7431775 12.5509363,16.7100017 12.904034,16.7157004 L13.1133109,16.7237845 C14.9046703,16.8342744 16.1143,17.995865 16.7422,20.20684 L18.0978,27.67564 C19.2554,34.26324 20.7774,40.82924 22.6614,47.37284 C23.30425,49.3987567 23.7861958,50.4269206 24.104069,50.4583878 L24.1446,50.45684 L24.1446,50.45684 C24.5066,50.34684 24.7602,49.29484 24.9082,47.29964 C26.4974,36.81364 29.0982,25.25404 32.3594,11.51324 L33.5054,5.94644 C33.8954,2.29724 35.2218,0.26764 37.4862,-0.14356 C38.0022,-0.23748 38.472648,-0.287256 38.8975472,-0.2929296 Z M72.5429633,26.3387646 L72.7950041,26.3514885 C73.4621058,26.403928 74.0891354,26.6044677 74.67572,26.95376 C75.63132,27.51976 76.11292,28.07336 76.12212,28.61216 C76.13132,29.15096 76.04772,29.59536 75.87532,29.94216 C75.39692,30.97696 74.86692,31.54736 74.28452,31.65496 C74.12742,31.68396 73.978695,31.70446 73.8383263,31.71641 L73.634038,31.7279162 C73.303995,31.736385 73.02612,31.69126 72.80012,31.59176 C72.43532,31.43456 72.12132,31.35736 71.85052,31.36216 C71.58212,31.41216 71.22772,31.79256 70.79052,32.50456 C68.90652,35.46536 67.04612,39.72976 65.20532,45.29616 C64.94812,46.01976 64.82172,46.51576 64.82732,46.78656 C64.82972,46.9792457 64.8809037,47.0799478 64.9801153,47.088918 L65.03372,47.08576 L65.03372,47.08576 C65.70612,46.96176 67.59972,44.60616 70.71652,40.02056 C74.66452,34.19816 77.08492,31.06936 77.97852,30.63416 C78.46812,30.40896 78.89172,30.26296 79.25212,30.19656 C79.46716,30.15648 79.658152,30.137712 79.8256144,30.1393056 L79.9852528,30.1476512 C80.035864,30.152672 80.08388,30.15992 80.12932,30.16936 C81.39572,30.61096 82.04572,31.77496 82.07732,33.66096 C82.09092,34.46976 81.99292,35.32176 81.78292,36.21576 C81.03212,39.64456 80.67692,42.59496 80.71892,45.06456 C80.75012,46.90576 81.16132,48.60976 81.95252,50.17576 C82.13852,50.50216 82.23252,50.77656 82.2358862,51.00096 C82.24692,51.62976 81.69212,52.04856 80.57132,52.25536 C80.42748,52.28208 80.290936,52.299968 80.1616112,52.3093312 L79.9730288,52.3170208 C79.850904,52.317936 79.73596,52.31048 79.62812,52.29496 C76.06532,51.82736 74.25012,49.50336 74.17892,45.32736 C74.1558042,43.92336 74.0012934,43.2097223 73.7181085,43.1878074 L73.66972,43.19056 L73.66972,43.19056 C73.62532,43.19856 72.55092,44.77256 70.44572,47.91056 C69.26212,49.70616 68.11932,51.34696 67.02012,52.83456 C65.92132,54.32216 64.78892,55.17416 63.62372,55.38936 C63.4442,55.42256 63.265448,55.44568 63.087464,55.4587296 L62.821064,55.4707524 C62.200808,55.481188 61.58996,55.36832 60.98852,55.13256 C59.13332,54.44016 58.18612,53.03856 58.14972,50.92616 C58.14052,50.38816 58.19812,49.81496 58.32412,49.20536 C59.35012,43.38296 61.94292,37.27176 66.10692,30.86896 C67.81772,28.25616 69.61412,26.77496 71.49732,26.42656 C71.8558431,26.3603446 72.2044064,26.3310523 72.5429633,26.3387646 Z M96.63467,-0.39926 L96.8663274,-0.389004444 C97.02332,-0.377671111 97.1854533,-0.35736 97.35292,-0.32816 C98.44692,-0.12256 98.99412,0.51944 98.99492,1.59544 C98.99492,2.09104 98.90332,2.69064 98.72252,3.39744 C93.39692,24.48304 90.73692,38.61824 90.74092,45.80224 C90.7420473,48.965743 91.2860645,50.5446991 92.3716454,50.5384451 L92.4783922,50.5328913 C92.514538,50.5293904 92.5512473,50.52424 92.58852,50.51744 C93.9651331,50.2672408 96.647034,48.0251677 100.634736,43.7899364 C100.538876,43.3947997 100.487028,42.9654744 100.47904,42.50192 C100.46984,41.96432 100.52744,41.39072 100.65344,40.78152 C101.67944,34.95872 104.27224,28.84752 108.43624,22.44512 C110.14704,19.83192 111.94344,18.35072 113.82664,18.00232 C114.185163,17.9361046 114.533726,17.9068123 114.872295,17.9145246 L115.124347,17.9272485 C115.791485,17.979688 116.418609,18.1802277 117.00544,18.52952 C117.96064,19.09552 118.44224,19.64912 118.45144,20.18832 C118.46064,20.72672 118.37704,21.17152 118.20464,21.51832 C117.72624,22.55272 117.19624,23.12312 116.61384,23.23072 C116.45674,23.25982 116.308015,23.28037 116.167646,23.2923387 L115.963358,23.303852 C115.633315,23.3123012 115.35544,23.26702 115.12944,23.16752 C114.76464,23.01032 114.45064,22.93312 114.17984,22.93832 C113.91144,22.98792 113.55704,23.36832 113.12024,24.08032 C111.23584,27.04152 109.37544,31.30552 107.53464,36.87232 C107.27744,37.59552 107.15104,38.09192 107.15664,38.36232 C107.15904,38.5550057 107.210224,38.6560016 107.309435,38.664804 L107.36304,38.66152 L107.36304,38.66152 C108.03544,38.53752 109.92904,36.18232 113.04584,31.59672 C116.99384,25.77392 119.41424,22.64512 120.30784,22.20992 C120.79744,21.98512 121.22104,21.83872 121.58144,21.77232 C121.79648,21.73248 121.987472,21.713664 122.154934,21.7152672 L122.314573,21.7236544 C122.365184,21.728704 122.4132,21.736 122.45864,21.74552 C123.72504,22.18672 124.37504,23.35112 124.40704,25.23672 C124.42024,26.04592 124.32224,26.89752 124.11224,27.79192 C123.36144,31.22032 123.00624,34.17072 123.04824,36.64072 C123.07944,38.48192 123.49064,40.18552 124.28184,41.75152 C124.46784,42.07792 124.56184,42.35272 124.565206,42.57712 C124.57624,43.20552 124.02144,43.62432 122.90064,43.83152 C122.75696,43.85808 122.620448,43.875936 122.491104,43.8852928 L122.302464,43.8929792 C122.180288,43.893888 122.06528,43.8864 121.95744,43.87072 C118.39464,43.40352 116.57984,41.07912 116.50864,36.90312 C116.485145,35.49912 116.330615,34.7858413 116.047429,34.7639642 L115.99904,34.76672 L115.99904,34.76672 C115.95464,34.77472 114.88024,36.34832 112.77504,39.48632 C111.59144,41.28192 110.44864,42.92312 109.34984,44.41032 C108.25064,45.89792 107.11824,46.74992 105.95304,46.96512 C105.77352,46.99832 105.594768,47.021456 105.416784,47.034528 L105.150384,47.046588 C104.530128,47.057116 103.91928,46.94436 103.31784,46.70832 L103.169221,46.6505821 L103.169221,46.6505821 L103.017211,46.8706055 C99.862572,51.3955816 96.2507635,54.0279183 92.18012,54.76824 C91.6988422,54.8556289 91.241299,54.9070841 90.8074925,54.9226132 L90.550057,54.9276196 C88.0041867,54.9345733 86.3128533,53.64824 85.47652,51.07024 C84.83652,49.21064 84.51652,46.86544 84.5157169,44.03744 C84.51372,39.27704 85.47932,33.09584 87.41332,25.49224 C89.34732,17.88864 91.27052,10.29784 93.18212,2.71984 C93.63612,0.93184 94.57172,-0.09216 95.98452,-0.34856 C96.19032,-0.38596 96.40682,-0.40276 96.63467,-0.39926 Z" id="Combined-Shape"></path>
                    </g>
                    <g id="brand/icon/special/24/start-with-nyala" transform="translate(0.000000, 2.000000)">
                        <path d="M21.251077,1.14460375 C21.5264721,1.20108835 21.7484378,1.40870567 21.8367901,1.68311513 L21.8635025,1.78898482 L21.9115873,2.07931696 C22.3541279,5.1037296 21.1165963,8.8673036 18.6202064,12.1062561 C19.4181815,13.9300796 19.1011804,16.0848634 17.8165792,17.5677966 L17.6640703,17.7358656 L13.8384124,21.7611372 C13.6923695,21.9148019 13.4950216,22 13.2903674,22 C13.2014987,22 13.1130008,21.9839085 13.0284962,21.9519959 C12.7775615,21.8571401 12.5928675,21.6344007 12.5347422,21.3653771 L12.5189959,21.2624831 L12.1688516,17.4285243 L11.9341192,17.5368227 C11.6610525,17.6596199 11.3748334,17.7219072 11.0891104,17.7219072 C10.5987063,17.7219072 10.128419,17.5387303 9.74537954,17.1985866 L9.60596058,17.0637261 L6.73408573,14.0419726 C6.1498653,13.4273052 5.96150262,12.5614741 6.22559788,11.7529664 L6.28446648,11.5921205 L6.38445792,11.3520744 L2.7509328,10.9846844 C2.4522838,10.9545165 2.19706547,10.7457147 2.09563206,10.4485862 C2.00687347,10.1886335 2.04998298,9.90189918 2.20417903,9.68473779 L2.27704425,9.59620912 L6.1026634,5.57093685 C6.83266535,4.80283724 7.76014227,4.31473037 8.78331722,4.16015064 C9.59346245,4.03775892 10.4310278,4.14017684 11.1921931,4.44974996 L11.4429428,4.56058919 L11.7428816,4.31011609 C14.8568423,1.76502762 18.4107783,0.561853415 21.251077,1.14460375 Z M17.4364155,13.5005223 L17.3090216,13.6361482 L16.9318071,14.0222553 C15.914287,15.035339 14.8057743,15.9146173 13.6524994,16.6235342 L13.9046726,19.3849785 L16.5681398,16.5825468 L16.7077803,16.4259635 C17.379027,15.6235279 17.6443741,14.5358796 17.4364155,13.5005223 Z M8.05869865,11.443636 C7.93324528,11.7062186 7.8168267,11.9696172 7.70976587,12.2331881 C7.61447015,12.4679009 7.65856755,12.7082159 7.8300528,12.8886507 L10.7019208,15.910397 C10.873484,16.0908821 11.1020101,16.1373238 11.3250543,16.0370421 L11.7005628,15.8607475 L12.0753519,15.6699503 L8.05869865,11.443636 Z M15.8801393,3.5718008 C14.2020712,4.34618384 12.5436227,5.55820339 11.0876604,7.09015012 C10.2370054,7.98519952 9.48505825,8.96013168 8.85838884,9.97853173 L13.4677597,14.8284585 C14.4356402,14.1691361 15.3622671,13.3778882 16.2129999,12.4827176 C16.5132027,12.1668066 16.8044361,11.8373861 17.0785824,11.5036381 C18.1289716,10.2248854 18.9717111,8.83581464 19.553609,7.4369831 L15.8801393,3.5718008 Z M7.19859634,6.72433621 L4.53538056,9.52657875 L7.14876525,9.79082257 C7.82299738,8.57527379 8.65975667,7.40683067 9.62413361,6.33436965 L9.99168886,5.93679139 L10.112386,5.81101107 C9.06673417,5.58956203 7.95752327,5.92580206 7.19859634,6.72433621 Z M19.7501119,2.62773852 C19.0358227,2.62773852 18.2779204,2.74192233 17.4964194,2.96586016 L20.1291934,5.73599894 C20.4110521,4.64802469 20.5105742,3.60692833 20.4204009,2.66277075 L20.2003043,2.6433084 C20.052418,2.63292848 19.9022652,2.62773852 19.7501119,2.62773852 Z" id="Combined-Shape" fill="#FFFFFF"></path>
                        <path d="M6.23112985,16.9333942 C6.47565651,16.6888686 6.87212531,16.6888686 7.11661022,16.9333942 C7.36113688,17.1779199 7.36113688,17.5743453 7.11656848,17.8188709 L7.11656848,17.8188709 L2.06883362,22.8665849 C1.94661204,22.9888895 1.78632143,23.05 1.62611431,23.05 C1.46590719,23.05 1.30565832,22.9888477 1.18339499,22.8665849 C0.938868335,22.6220592 0.938868335,22.2256338 1.18339499,21.9811082 L1.18339499,21.9811082 Z M7.21143159,17.9953562 C7.47186763,17.7348813 7.89420357,17.7348813 8.15463962,17.9953562 C8.41512013,18.2558312 8.41512013,18.6781138 8.15463962,18.9385888 L8.15463962,18.9385888 L6.33856841,20.7546215 C6.20837262,20.8849035 6.03762405,20.95 5.8669644,20.95 C5.69630475,20.95 5.52560064,20.884859 5.39536038,20.7546215 C5.13487987,20.4941465 5.13487987,20.071864 5.39536038,19.811389 L5.39536038,19.811389 Z M5.11141927,15.8953406 C5.37193689,15.6349087 5.7942609,15.6348642 6.05464513,15.8953406 C6.31511829,16.155817 6.31511829,16.5781017 6.05464513,16.8385781 L6.05464513,16.8385781 L4.23858073,18.6546205 C4.10838862,18.7848142 3.93764486,18.8499555 3.76694557,18.85 C3.59629074,18.85 3.42559145,18.7848587 3.29535487,18.6546205 C3.03488171,18.3941441 3.03488171,17.9718593 3.29535487,17.711383 L3.29535487,17.711383 Z" id="Combined-Shape" fill="url(#linearGradient-1)"></path>
                    </g>
                </g>
            </g>
        </g>
    </g>
</svg>